digraph G {
"0x7fff58001220"[label="K: 642 - H: 11"];
"0x7fff58001220" -> "0x7fff880013e0"[color=blue];
"0x7fff58001220" -> "0x7fff58000fa0"[color=green];
"0x7fff58001220" -> "0x555555776fb0"[color=grey];
"0x7fff880013e0"[label="K: 260 - H: 10"];
"0x7fff880013e0" -> "0x7fff80002720"[color=blue];
"0x7fff880013e0" -> "0x7fff28001b20"[color=green];
"0x7fff880013e0" -> "0x7fff58001220"[color=grey];
"0x7fff80002720"[label="K: 110 - H: 8"];
"0x7fff80002720" -> "0x7fff34001360"[color=blue];
"0x7fff80002720" -> "0x7fff340022a0"[color=green];
"0x7fff80002720" -> "0x7fff880013e0"[color=grey];
"0x7fff34001360"[label="K: 80 - H: 7"];
"0x7fff34001360" -> "0x7fff00001b20"[color=blue];
"0x7fff34001360" -> "0x7ffeec0012e0"[color=green];
"0x7fff34001360" -> "0x7fff80002720"[color=grey];
"0x7fff00001b20"[label="K: 32 - H: 6"];
"0x7fff00001b20" -> "0x7fff6c000b20"[color=blue];
"0x7fff00001b20" -> "0x7fff880019e0"[color=green];
"0x7fff00001b20" -> "0x7fff34001360"[color=grey];
"0x7fff6c000b20"[label="K: 18 - H: 4"];
"0x7fff6c000b20" -> "0x7fffd40010e0"[color=blue];
"0x7fff6c000b20" -> "0x7fff10001a20"[color=green];
"0x7fff6c000b20" -> "0x7fff00001b20"[color=grey];
"0x7fffd40010e0"[label="K: 14 - H: 3"];
"0x7fffd40010e0" -> "0x7fff280018e0"[color=blue];
"0x7fffd40010e0" -> "0x7fff18001820"[color=green];
"0x7fffd40010e0" -> "0x7fff6c000b20"[color=grey];
"0x7fff280018e0"[label="K: 8 - H: 2"];
"0x7fff280018e0" -> "0x7fff100017a0"[color=green];
"0x7fff280018e0" -> "0x7fffd40010e0"[color=grey];
"0x7fff100017a0"[label="K: 9 - H: 1"];
"0x7fff100017a0" -> "0x7fff280018e0"[color=grey];
"0x7fff18001820"[label="K: 17 - H: 1"];
"0x7fff18001820" -> "0x7fffd40010e0"[color=grey];
"0x7fff10001a20"[label="K: 23 - H: 3"];
"0x7fff10001a20" -> "0x7fff34000da0"[color=blue];
"0x7fff10001a20" -> "0x7fffa80014a0"[color=green];
"0x7fff10001a20" -> "0x7fff6c000b20"[color=grey];
"0x7fff34000da0"[label="K: 21 - H: 1"];
"0x7fff34000da0" -> "0x7fff10001a20"[color=grey];
"0x7fffa80014a0"[label="K: 26 - H: 2"];
"0x7fffa80014a0" -> "0x7fff50001be0"[color=green];
"0x7fffa80014a0" -> "0x7fff10001a20"[color=grey];
"0x7fff50001be0"[label="K: 29 - H: 1"];
"0x7fff50001be0" -> "0x7fffa80014a0"[color=grey];
"0x7fff880019e0"[label="K: 63 - H: 5"];
"0x7fff880019e0" -> "0x7fff7c0010a0"[color=blue];
"0x7fff880019e0" -> "0x7fff600010a0"[color=green];
"0x7fff880019e0" -> "0x7fff00001b20"[color=grey];
"0x7fff7c0010a0"[label="K: 46 - H: 4"];
"0x7fff7c0010a0" -> "0x7fff34000be0"[color=blue];
"0x7fff7c0010a0" -> "0x7fff80000b20"[color=green];
"0x7fff7c0010a0" -> "0x7fff880019e0"[color=grey];
"0x7fff34000be0"[label="K: 40 - H: 3"];
"0x7fff34000be0" -> "0x7fff58000be0"[color=blue];
"0x7fff34000be0" -> "0x7fff640017a0"[color=green];
"0x7fff34000be0" -> "0x7fff7c0010a0"[color=grey];
"0x7fff58000be0"[label="K: 36 - H: 2"];
"0x7fff58000be0" -> "0x7fff280013a0"[color=blue];
"0x7fff58000be0" -> "0x7fff880011e0"[color=green];
"0x7fff58000be0" -> "0x7fff34000be0"[color=grey];
"0x7fff280013a0"[label="K: 34 - H: 1"];
"0x7fff280013a0" -> "0x7fff58000be0"[color=grey];
"0x7fff880011e0"[label="K: 39 - H: 1"];
"0x7fff880011e0" -> "0x7fff58000be0"[color=grey];
"0x7fff640017a0"[label="K: 42 - H: 2"];
"0x7fff640017a0" -> "0x7fff18000da0"[color=green];
"0x7fff640017a0" -> "0x7fff34000be0"[color=grey];
"0x7fff18000da0"[label="K: 43 - H: 1"];
"0x7fff18000da0" -> "0x7fff640017a0"[color=grey];
"0x7fff80000b20"[label="K: 51 - H: 3"];
"0x7fff80000b20" -> "0x7fff10001b60"[color=blue];
"0x7fff80000b20" -> "0x7fff60002ce0"[color=green];
"0x7fff80000b20" -> "0x7fff7c0010a0"[color=grey];
"0x7fff10001b60"[label="K: 48 - H: 2"];
"0x7fff10001b60" -> "0x7fff10001ea0"[color=blue];
"0x7fff10001b60" -> "0x7fff18001460"[color=green];
"0x7fff10001b60" -> "0x7fff80000b20"[color=grey];
"0x7fff10001ea0"[label="K: 47 - H: 1"];
"0x7fff10001ea0" -> "0x7fff10001b60"[color=grey];
"0x7fff18001460"[label="K: 50 - H: 1"];
"0x7fff18001460" -> "0x7fff10001b60"[color=grey];
"0x7fff60002ce0"[label="K: 54 - H: 2"];
"0x7fff60002ce0" -> "0x7fff58001720"[color=green];
"0x7fff60002ce0" -> "0x7fff80000b20"[color=grey];
"0x7fff58001720"[label="K: 55 - H: 1"];
"0x7fff58001720" -> "0x7fff60002ce0"[color=grey];
"0x7fff600010a0"[label="K: 74 - H: 4"];
"0x7fff600010a0" -> "0x7fff80001860"[color=blue];
"0x7fff600010a0" -> "0x7ffeec000ca0"[color=green];
"0x7fff600010a0" -> "0x7fff880019e0"[color=grey];
"0x7fff80001860"[label="K: 69 - H: 3"];
"0x7fff80001860" -> "0x7fff64001920"[color=blue];
"0x7fff80001860" -> "0x7fff88000f20"[color=green];
"0x7fff80001860" -> "0x7fff600010a0"[color=grey];
"0x7fff64001920"[label="K: 67 - H: 2"];
"0x7fff64001920" -> "0x7fff28001d20"[color=blue];
"0x7fff64001920" -> "0x7fff80001860"[color=grey];
"0x7fff28001d20"[label="K: 64 - H: 1"];
"0x7fff28001d20" -> "0x7fff64001920"[color=grey];
"0x7fff88000f20"[label="K: 72 - H: 1"];
"0x7fff88000f20" -> "0x7fff80001860"[color=grey];
"0x7ffeec000ca0"[label="K: 76 - H: 2"];
"0x7ffeec000ca0" -> "0x7fff640016e0"[color=green];
"0x7ffeec000ca0" -> "0x7fff600010a0"[color=grey];
"0x7fff640016e0"[label="K: 78 - H: 1"];
"0x7fff640016e0" -> "0x7ffeec000ca0"[color=grey];
"0x7ffeec0012e0"[label="K: 97 - H: 5"];
"0x7ffeec0012e0" -> "0x7fffa8000fa0"[color=blue];
"0x7ffeec0012e0" -> "0x7fff34001b60"[color=green];
"0x7ffeec0012e0" -> "0x7fff34001360"[color=grey];
"0x7fffa8000fa0"[label="K: 92 - H: 4"];
"0x7fffa8000fa0" -> "0x7fff7c001760"[color=blue];
"0x7fffa8000fa0" -> "0x7fff400013e0"[color=green];
"0x7fffa8000fa0" -> "0x7ffeec0012e0"[color=grey];
"0x7fff7c001760"[label="K: 86 - H: 3"];
"0x7fff7c001760" -> "0x7fffa00010e0"[color=blue];
"0x7fff7c001760" -> "0x7fff340014e0"[color=green];
"0x7fff7c001760" -> "0x7fffa8000fa0"[color=grey];
"0x7fffa00010e0"[label="K: 81 - H: 1"];
"0x7fffa00010e0" -> "0x7fff7c001760"[color=grey];
"0x7fff340014e0"[label="K: 89 - H: 2"];
"0x7fff340014e0" -> "0x7fffc0000f20"[color=blue];
"0x7fff340014e0" -> "0x7fff80001620"[color=green];
"0x7fff340014e0" -> "0x7fff7c001760"[color=grey];
"0x7fffc0000f20"[label="K: 87 - H: 1"];
"0x7fffc0000f20" -> "0x7fff340014e0"[color=grey];
"0x7fff80001620"[label="K: 90 - H: 1"];
"0x7fff80001620" -> "0x7fff340014e0"[color=grey];
"0x7fff400013e0"[label="K: 93 - H: 2"];
"0x7fff400013e0" -> "0x7fff140010e0"[color=green];
"0x7fff400013e0" -> "0x7fffa8000fa0"[color=grey];
"0x7fff140010e0"[label="K: 96 - H: 1"];
"0x7fff140010e0" -> "0x7fff400013e0"[color=grey];
"0x7fff34001b60"[label="K: 103 - H: 4"];
"0x7fff34001b60" -> "0x7fff180013e0"[color=blue];
"0x7fff34001b60" -> "0x7fffb4001460"[color=green];
"0x7fff34001b60" -> "0x7ffeec0012e0"[color=grey];
"0x7fff180013e0"[label="K: 100 - H: 2"];
"0x7fff180013e0" -> "0x7fff7c001aa0"[color=blue];
"0x7fff180013e0" -> "0x7fff10000ce0"[color=green];
"0x7fff180013e0" -> "0x7fff34001b60"[color=grey];
"0x7fff7c001aa0"[label="K: 99 - H: 1"];
"0x7fff7c001aa0" -> "0x7fff180013e0"[color=grey];
"0x7fff10000ce0"[label="K: 102 - H: 1"];
"0x7fff10000ce0" -> "0x7fff180013e0"[color=grey];
"0x7fffb4001460"[label="K: 105 - H: 3"];
"0x7fffb4001460" -> "0x7fff34001aa0"[color=blue];
"0x7fffb4001460" -> "0x7fff18001120"[color=green];
"0x7fffb4001460" -> "0x7fff34001b60"[color=grey];
"0x7fff34001aa0"[label="K: 104 - H: 1"];
"0x7fff34001aa0" -> "0x7fffb4001460"[color=grey];
"0x7fff18001120"[label="K: 106 - H: 2"];
"0x7fff18001120" -> "0x7fff40001760"[color=green];
"0x7fff18001120" -> "0x7fffb4001460"[color=grey];
"0x7fff40001760"[label="K: 108 - H: 1"];
"0x7fff40001760" -> "0x7fff18001120"[color=grey];
"0x7fff340022a0"[label="K: 165 - H: 7"];
"0x7fff340022a0" -> "0x7fff340022e0"[color=blue];
"0x7fff340022a0" -> "0x7fffa8000b60"[color=green];
"0x7fff340022a0" -> "0x7fff80002720"[color=grey];
"0x7fff340022e0"[label="K: 135 - H: 5"];
"0x7fff340022e0" -> "0x7fff28001520"[color=blue];
"0x7fff340022e0" -> "0x7fff38001460"[color=green];
"0x7fff340022e0" -> "0x7fff340022a0"[color=grey];
"0x7fff28001520"[label="K: 130 - H: 4"];
"0x7fff28001520" -> "0x7fffc0001460"[color=blue];
"0x7fff28001520" -> "0x7ffeec0016a0"[color=green];
"0x7fff28001520" -> "0x7fff340022e0"[color=grey];
"0x7fffc0001460"[label="K: 117 - H: 3"];
"0x7fffc0001460" -> "0x7fff28001b60"[color=blue];
"0x7fffc0001460" -> "0x7fff40001960"[color=green];
"0x7fffc0001460" -> "0x7fff28001520"[color=grey];
"0x7fff28001b60"[label="K: 116 - H: 1"];
"0x7fff28001b60" -> "0x7fffc0001460"[color=grey];
"0x7fff40001960"[label="K: 120 - H: 2"];
"0x7fff40001960" -> "0x7fff34001de0"[color=blue];
"0x7fff40001960" -> "0x7fff34001120"[color=green];
"0x7fff40001960" -> "0x7fffc0001460"[color=grey];
"0x7fff34001de0"[label="K: 119 - H: 1"];
"0x7fff34001de0" -> "0x7fff40001960"[color=grey];
"0x7fff34001120"[label="K: 124 - H: 1"];
"0x7fff34001120" -> "0x7fff40001960"[color=grey];
"0x7ffeec0016a0"[label="K: 132 - H: 2"];
"0x7ffeec0016a0" -> "0x7fff18001620"[color=green];
"0x7ffeec0016a0" -> "0x7fff28001520"[color=grey];
"0x7fff18001620"[label="K: 133 - H: 1"];
"0x7fff18001620" -> "0x7ffeec0016a0"[color=grey];
"0x7fff38001460"[label="K: 143 - H: 4"];
"0x7fff38001460" -> "0x7fff18000e20"[color=blue];
"0x7fff38001460" -> "0x7fff40000d60"[color=green];
"0x7fff38001460" -> "0x7fff340022e0"[color=grey];
"0x7fff18000e20"[label="K: 139 - H: 3"];
"0x7fff18000e20" -> "0x7fff28001120"[color=blue];
"0x7fff18000e20" -> "0x7fff6c001960"[color=green];
"0x7fff18000e20" -> "0x7fff38001460"[color=grey];
"0x7fff28001120"[label="K: 138 - H: 2"];
"0x7fff28001120" -> "0x7fff38001620"[color=blue];
"0x7fff28001120" -> "0x7fff18000e20"[color=grey];
"0x7fff38001620"[label="K: 137 - H: 1"];
"0x7fff38001620" -> "0x7fff28001120"[color=grey];
"0x7fff6c001960"[label="K: 140 - H: 1"];
"0x7fff6c001960" -> "0x7fff18000e20"[color=grey];
"0x7fff40000d60"[label="K: 156 - H: 3"];
"0x7fff40000d60" -> "0x7fff40000de0"[color=blue];
"0x7fff40000d60" -> "0x7fff80001ae0"[color=green];
"0x7fff40000d60" -> "0x7fff38001460"[color=grey];
"0x7fff40000de0"[label="K: 146 - H: 2"];
"0x7fff40000de0" -> "0x7fff000012a0"[color=green];
"0x7fff40000de0" -> "0x7fff40000d60"[color=grey];
"0x7fff000012a0"[label="K: 153 - H: 1"];
"0x7fff000012a0" -> "0x7fff40000de0"[color=grey];
"0x7fff80001ae0"[label="K: 163 - H: 2"];
"0x7fff80001ae0" -> "0x7fff800011a0"[color=blue];
"0x7fff80001ae0" -> "0x7fff40000d60"[color=grey];
"0x7fff800011a0"[label="K: 158 - H: 1"];
"0x7fff800011a0" -> "0x7fff80001ae0"[color=grey];
"0x7fffa8000b60"[label="K: 222 - H: 6"];
"0x7fffa8000b60" -> "0x7fffd40011e0"[color=blue];
"0x7fffa8000b60" -> "0x7fffb00018e0"[color=green];
"0x7fffa8000b60" -> "0x7fff340022a0"[color=grey];
"0x7fffd40011e0"[label="K: 186 - H: 5"];
"0x7fffd40011e0" -> "0x7fff600015e0"[color=blue];
"0x7fffd40011e0" -> "0x7fff50001520"[color=green];
"0x7fffd40011e0" -> "0x7fffa8000b60"[color=grey];
"0x7fff600015e0"[label="K: 172 - H: 4"];
"0x7fff600015e0" -> "0x7fff88000fe0"[color=blue];
"0x7fff600015e0" -> "0x7fff34001c20"[color=green];
"0x7fff600015e0" -> "0x7fffd40011e0"[color=grey];
"0x7fff88000fe0"[label="K: 168 - H: 3"];
"0x7fff88000fe0" -> "0x7fff28001ea0"[color=blue];
"0x7fff88000fe0" -> "0x7fff64002160"[color=green];
"0x7fff88000fe0" -> "0x7fff600015e0"[color=grey];
"0x7fff28001ea0"[label="K: 166 - H: 1"];
"0x7fff28001ea0" -> "0x7fff88000fe0"[color=grey];
"0x7fff64002160"[label="K: 170 - H: 2"];
"0x7fff64002160" -> "0x7fffb0001960"[color=green];
"0x7fff64002160" -> "0x7fff88000fe0"[color=grey];
"0x7fffb0001960"[label="K: 171 - H: 1"];
"0x7fffb0001960" -> "0x7fff64002160"[color=grey];
"0x7fff34001c20"[label="K: 178 - H: 3"];
"0x7fff34001c20" -> "0x7fff00002020"[color=blue];
"0x7fff34001c20" -> "0x7fff380013e0"[color=green];
"0x7fff34001c20" -> "0x7fff600015e0"[color=grey];
"0x7fff00002020"[label="K: 173 - H: 1"];
"0x7fff00002020" -> "0x7fff34001c20"[color=grey];
"0x7fff380013e0"[label="K: 181 - H: 2"];
"0x7fff380013e0" -> "0x7fff00002560"[color=green];
"0x7fff380013e0" -> "0x7fff34001c20"[color=grey];
"0x7fff00002560"[label="K: 183 - H: 1"];
"0x7fff00002560" -> "0x7fff380013e0"[color=grey];
"0x7fff50001520"[label="K: 200 - H: 4"];
"0x7fff50001520" -> "0x7fff6c001060"[color=blue];
"0x7fff50001520" -> "0x7fffa80019a0"[color=green];
"0x7fff50001520" -> "0x7fffd40011e0"[color=grey];
"0x7fff6c001060"[label="K: 191 - H: 2"];
"0x7fff6c001060" -> "0x7fffb40019e0"[color=blue];
"0x7fff6c001060" -> "0x7fff50001520"[color=grey];
"0x7fffb40019e0"[label="K: 187 - H: 1"];
"0x7fffb40019e0" -> "0x7fff6c001060"[color=grey];
"0x7fffa80019a0"[label="K: 210 - H: 3"];
"0x7fffa80019a0" -> "0x7fff7c000e20"[color=blue];
"0x7fffa80019a0" -> "0x7fff40000be0"[color=green];
"0x7fffa80019a0" -> "0x7fff50001520"[color=grey];
"0x7fff7c000e20"[label="K: 207 - H: 2"];
"0x7fff7c000e20" -> "0x7fff80000e60"[color=blue];
"0x7fff7c000e20" -> "0x7fffa80019a0"[color=grey];
"0x7fff80000e60"[label="K: 204 - H: 1"];
"0x7fff80000e60" -> "0x7fff7c000e20"[color=grey];
"0x7fff40000be0"[label="K: 212 - H: 2"];
"0x7fff40000be0" -> "0x7fff7c000d20"[color=blue];
"0x7fff40000be0" -> "0x7fff00001ca0"[color=green];
"0x7fff40000be0" -> "0x7fffa80019a0"[color=grey];
"0x7fff7c000d20"[label="K: 211 - H: 1"];
"0x7fff7c000d20" -> "0x7fff40000be0"[color=grey];
"0x7fff00001ca0"[label="K: 218 - H: 1"];
"0x7fff00001ca0" -> "0x7fff40000be0"[color=grey];
"0x7fffb00018e0"[label="K: 241 - H: 5"];
"0x7fffb00018e0" -> "0x7fff10000da0"[color=blue];
"0x7fffb00018e0" -> "0x7fffb0001360"[color=green];
"0x7fffb00018e0" -> "0x7fffa8000b60"[color=grey];
"0x7fff10000da0"[label="K: 233 - H: 4"];
"0x7fff10000da0" -> "0x7fff7c001c60"[color=blue];
"0x7fff10000da0" -> "0x7fff28000e60"[color=green];
"0x7fff10000da0" -> "0x7fffb00018e0"[color=grey];
"0x7fff7c001c60"[label="K: 228 - H: 3"];
"0x7fff7c001c60" -> "0x7fff40001120"[color=blue];
"0x7fff7c001c60" -> "0x7fff00001060"[color=green];
"0x7fff7c001c60" -> "0x7fff10000da0"[color=grey];
"0x7fff40001120"[label="K: 225 - H: 2"];
"0x7fff40001120" -> "0x7fffa8001620"[color=blue];
"0x7fff40001120" -> "0x7fff18000be0"[color=green];
"0x7fff40001120" -> "0x7fff7c001c60"[color=grey];
"0x7fffa8001620"[label="K: 224 - H: 1"];
"0x7fffa8001620" -> "0x7fff40001120"[color=grey];
"0x7fff18000be0"[label="K: 226 - H: 1"];
"0x7fff18000be0" -> "0x7fff40001120"[color=grey];
"0x7fff00001060"[label="K: 231 - H: 2"];
"0x7fff00001060" -> "0x7fff64000fa0"[color=blue];
"0x7fff00001060" -> "0x7fff7c001c60"[color=grey];
"0x7fff64000fa0"[label="K: 230 - H: 1"];
"0x7fff64000fa0" -> "0x7fff00001060"[color=grey];
"0x7fff28000e60"[label="K: 237 - H: 2"];
"0x7fff28000e60" -> "0x7fffb40013e0"[color=blue];
"0x7fff28000e60" -> "0x7fff28001720"[color=green];
"0x7fff28000e60" -> "0x7fff10000da0"[color=grey];
"0x7fffb40013e0"[label="K: 236 - H: 1"];
"0x7fffb40013e0" -> "0x7fff28000e60"[color=grey];
"0x7fff28001720"[label="K: 239 - H: 1"];
"0x7fff28001720" -> "0x7fff28000e60"[color=grey];
"0x7fffb0001360"[label="K: 248 - H: 4"];
"0x7fffb0001360" -> "0x7fff28000d60"[color=blue];
"0x7fffb0001360" -> "0x7fffa80016a0"[color=green];
"0x7fffb0001360" -> "0x7fffb00018e0"[color=grey];
"0x7fff28000d60"[label="K: 245 - H: 3"];
"0x7fff28000d60" -> "0x7fffa8001ce0"[color=blue];
"0x7fff28000d60" -> "0x7fffd40018a0"[color=green];
"0x7fff28000d60" -> "0x7fffb0001360"[color=grey];
"0x7fffa8001ce0"[label="K: 243 - H: 2"];
"0x7fffa8001ce0" -> "0x7fff28001820"[color=blue];
"0x7fffa8001ce0" -> "0x7fff28000d60"[color=grey];
"0x7fff28001820"[label="K: 242 - H: 1"];
"0x7fff28001820" -> "0x7fffa8001ce0"[color=grey];
"0x7fffd40018a0"[label="K: 247 - H: 1"];
"0x7fffd40018a0" -> "0x7fff28000d60"[color=grey];
"0x7fffa80016a0"[label="K: 251 - H: 2"];
"0x7fffa80016a0" -> "0x7fffb00011e0"[color=green];
"0x7fffa80016a0" -> "0x7fffb0001360"[color=grey];
"0x7fffb00011e0"[label="K: 258 - H: 1"];
"0x7fffb00011e0" -> "0x7fffa80016a0"[color=grey];
"0x7fff28001b20"[label="K: 454 - H: 9"];
"0x7fff28001b20" -> "0x7fff00001ae0"[color=blue];
"0x7fff28001b20" -> "0x7fff600016e0"[color=green];
"0x7fff28001b20" -> "0x7fff880013e0"[color=grey];
"0x7fff00001ae0"[label="K: 345 - H: 8"];
"0x7fff00001ae0" -> "0x7fff80001b20"[color=blue];
"0x7fff00001ae0" -> "0x7fff88001a20"[color=green];
"0x7fff00001ae0" -> "0x7fff28001b20"[color=grey];
"0x7fff80001b20"[label="K: 301 - H: 6"];
"0x7fff80001b20" -> "0x7fff880013a0"[color=blue];
"0x7fff80001b20" -> "0x7fffc0000c20"[color=green];
"0x7fff80001b20" -> "0x7fff00001ae0"[color=grey];
"0x7fff880013a0"[label="K: 282 - H: 5"];
"0x7fff880013a0" -> "0x7fffc4001120"[color=blue];
"0x7fff880013a0" -> "0x7fff18000ea0"[color=green];
"0x7fff880013a0" -> "0x7fff80001b20"[color=grey];
"0x7fffc4001120"[label="K: 275 - H: 4"];
"0x7fffc4001120" -> "0x7fff34001ee0"[color=blue];
"0x7fffc4001120" -> "0x7fff10001ce0"[color=green];
"0x7fffc4001120" -> "0x7fff880013a0"[color=grey];
"0x7fff34001ee0"[label="K: 267 - H: 3"];
"0x7fff34001ee0" -> "0x7fff640012e0"[color=blue];
"0x7fff34001ee0" -> "0x7fffd4000c20"[color=green];
"0x7fff34001ee0" -> "0x7fffc4001120"[color=grey];
"0x7fff640012e0"[label="K: 265 - H: 2"];
"0x7fff640012e0" -> "0x7fff28001460"[color=blue];
"0x7fff640012e0" -> "0x7fffa80019e0"[color=green];
"0x7fff640012e0" -> "0x7fff34001ee0"[color=grey];
"0x7fff28001460"[label="K: 262 - H: 1"];
"0x7fff28001460" -> "0x7fff640012e0"[color=grey];
"0x7fffa80019e0"[label="K: 266 - H: 1"];
"0x7fffa80019e0" -> "0x7fff640012e0"[color=grey];
"0x7fffd4000c20"[label="K: 271 - H: 2"];
"0x7fffd4000c20" -> "0x7fff28000da0"[color=blue];
"0x7fffd4000c20" -> "0x7fff80001320"[color=green];
"0x7fffd4000c20" -> "0x7fff34001ee0"[color=grey];
"0x7fff28000da0"[label="K: 268 - H: 1"];
"0x7fff28000da0" -> "0x7fffd4000c20"[color=grey];
"0x7fff80001320"[label="K: 273 - H: 1"];
"0x7fff80001320" -> "0x7fffd4000c20"[color=grey];
"0x7fff10001ce0"[label="K: 277 - H: 2"];
"0x7fff10001ce0" -> "0x7fff280016e0"[color=blue];
"0x7fff10001ce0" -> "0x7fffb4000fe0"[color=green];
"0x7fff10001ce0" -> "0x7fffc4001120"[color=grey];
"0x7fff280016e0"[label="K: 276 - H: 1"];
"0x7fff280016e0" -> "0x7fff10001ce0"[color=grey];
"0x7fffb4000fe0"[label="K: 281 - H: 1"];
"0x7fffb4000fe0" -> "0x7fff10001ce0"[color=grey];
"0x7fff18000ea0"[label="K: 293 - H: 4"];
"0x7fff18000ea0" -> "0x7fff40000f20"[color=blue];
"0x7fff18000ea0" -> "0x7fff50000ea0"[color=green];
"0x7fff18000ea0" -> "0x7fff880013a0"[color=grey];
"0x7fff40000f20"[label="K: 287 - H: 3"];
"0x7fff40000f20" -> "0x7fff28001da0"[color=blue];
"0x7fff40000f20" -> "0x7fff10001e20"[color=green];
"0x7fff40000f20" -> "0x7fff18000ea0"[color=grey];
"0x7fff28001da0"[label="K: 286 - H: 1"];
"0x7fff28001da0" -> "0x7fff40000f20"[color=grey];
"0x7fff10001e20"[label="K: 288 - H: 2"];
"0x7fff10001e20" -> "0x7fff60001e60"[color=green];
"0x7fff10001e20" -> "0x7fff40000f20"[color=grey];
"0x7fff60001e60"[label="K: 289 - H: 1"];
"0x7fff60001e60" -> "0x7fff10001e20"[color=grey];
"0x7fff50000ea0"[label="K: 298 - H: 2"];
"0x7fff50000ea0" -> "0x7fff180014a0"[color=blue];
"0x7fff50000ea0" -> "0x7fff500010e0"[color=green];
"0x7fff50000ea0" -> "0x7fff18000ea0"[color=grey];
"0x7fff180014a0"[label="K: 294 - H: 1"];
"0x7fff180014a0" -> "0x7fff50000ea0"[color=grey];
"0x7fff500010e0"[label="K: 299 - H: 1"];
"0x7fff500010e0" -> "0x7fff50000ea0"[color=grey];
"0x7fffc0000c20"[label="K: 328 - H: 5"];
"0x7fffc0000c20" -> "0x7fff100013e0"[color=blue];
"0x7fffc0000c20" -> "0x7fff38000e20"[color=green];
"0x7fffc0000c20" -> "0x7fff80001b20"[color=grey];
"0x7fff100013e0"[label="K: 313 - H: 4"];
"0x7fff100013e0" -> "0x7fffb0001260"[color=blue];
"0x7fff100013e0" -> "0x7fff500013e0"[color=green];
"0x7fff100013e0" -> "0x7fffc0000c20"[color=grey];
"0x7fffb0001260"[label="K: 310 - H: 3"];
"0x7fffb0001260" -> "0x7fff40000fe0"[color=blue];
"0x7fffb0001260" -> "0x7fffa8000e60"[color=green];
"0x7fffb0001260" -> "0x7fff100013e0"[color=grey];
"0x7fff40000fe0"[label="K: 304 - H: 2"];
"0x7fff40000fe0" -> "0x7fff64001c60"[color=blue];
"0x7fff40000fe0" -> "0x7fff18000fe0"[color=green];
"0x7fff40000fe0" -> "0x7fffb0001260"[color=grey];
"0x7fff64001c60"[label="K: 302 - H: 1"];
"0x7fff64001c60" -> "0x7fff40000fe0"[color=grey];
"0x7fff18000fe0"[label="K: 309 - H: 1"];
"0x7fff18000fe0" -> "0x7fff40000fe0"[color=grey];
"0x7fffa8000e60"[label="K: 312 - H: 1"];
"0x7fffa8000e60" -> "0x7fffb0001260"[color=grey];
"0x7fff500013e0"[label="K: 318 - H: 3"];
"0x7fff500013e0" -> "0x7fff400011e0"[color=blue];
"0x7fff500013e0" -> "0x7fff00001520"[color=green];
"0x7fff500013e0" -> "0x7fff100013e0"[color=grey];
"0x7fff400011e0"[label="K: 315 - H: 2"];
"0x7fff400011e0" -> "0x7fff28000be0"[color=green];
"0x7fff400011e0" -> "0x7fff500013e0"[color=grey];
"0x7fff28000be0"[label="K: 316 - H: 1"];
"0x7fff28000be0" -> "0x7fff400011e0"[color=grey];
"0x7fff00001520"[label="K: 319 - H: 2"];
"0x7fff00001520" -> "0x7fff70002320"[color=green];
"0x7fff00001520" -> "0x7fff500013e0"[color=grey];
"0x7fff70002320"[label="K: 321 - H: 1"];
"0x7fff70002320" -> "0x7fff00001520"[color=grey];
"0x7fff38000e20"[label="K: 338 - H: 3"];
"0x7fff38000e20" -> "0x7ffeec001c60"[color=blue];
"0x7fff38000e20" -> "0x7fff40001e60"[color=green];
"0x7fff38000e20" -> "0x7fffc0000c20"[color=grey];
"0x7ffeec001c60"[label="K: 331 - H: 2"];
"0x7ffeec001c60" -> "0x7fff580010a0"[color=green];
"0x7ffeec001c60" -> "0x7fff38000e20"[color=grey];
"0x7fff580010a0"[label="K: 332 - H: 1"];
"0x7fff580010a0" -> "0x7ffeec001c60"[color=grey];
"0x7fff40001e60"[label="K: 340 - H: 2"];
"0x7fff40001e60" -> "0x7fffa8001be0"[color=blue];
"0x7fff40001e60" -> "0x7fff80002460"[color=green];
"0x7fff40001e60" -> "0x7fff38000e20"[color=grey];
"0x7fffa8001be0"[label="K: 339 - H: 1"];
"0x7fffa8001be0" -> "0x7fff40001e60"[color=grey];
"0x7fff80002460"[label="K: 342 - H: 1"];
"0x7fff80002460" -> "0x7fff40001e60"[color=grey];
"0x7fff88001a20"[label="K: 403 - H: 7"];
"0x7fff88001a20" -> "0x7fff10001aa0"[color=blue];
"0x7fff88001a20" -> "0x7fffc4000b20"[color=green];
"0x7fff88001a20" -> "0x7fff00001ae0"[color=grey];
"0x7fff10001aa0"[label="K: 381 - H: 6"];
"0x7fff10001aa0" -> "0x7fff28001ae0"[color=blue];
"0x7fff10001aa0" -> "0x7fff40001260"[color=green];
"0x7fff10001aa0" -> "0x7fff88001a20"[color=grey];
"0x7fff28001ae0"[label="K: 362 - H: 5"];
"0x7fff28001ae0" -> "0x7fff00000c60"[color=blue];
"0x7fff28001ae0" -> "0x7fff88000ce0"[color=green];
"0x7fff28001ae0" -> "0x7fff10001aa0"[color=grey];
"0x7fff00000c60"[label="K: 354 - H: 3"];
"0x7fff00000c60" -> "0x7fff28000ba0"[color=blue];
"0x7fff00000c60" -> "0x7fff28001420"[color=green];
"0x7fff00000c60" -> "0x7fff28001ae0"[color=grey];
"0x7fff28000ba0"[label="K: 351 - H: 2"];
"0x7fff28000ba0" -> "0x7fff28000d20"[color=green];
"0x7fff28000ba0" -> "0x7fff00000c60"[color=grey];
"0x7fff28000d20"[label="K: 352 - H: 1"];
"0x7fff28000d20" -> "0x7fff28000ba0"[color=grey];
"0x7fff28001420"[label="K: 360 - H: 2"];
"0x7fff28001420" -> "0x7fff60001260"[color=blue];
"0x7fff28001420" -> "0x7fffb00014a0"[color=green];
"0x7fff28001420" -> "0x7fff00000c60"[color=grey];
"0x7fff60001260"[label="K: 358 - H: 1"];
"0x7fff60001260" -> "0x7fff28001420"[color=grey];
"0x7fffb00014a0"[label="K: 361 - H: 1"];
"0x7fffb00014a0" -> "0x7fff28001420"[color=grey];
"0x7fff88000ce0"[label="K: 368 - H: 4"];
"0x7fff88000ce0" -> "0x7fffd4000b20"[color=blue];
"0x7fff88000ce0" -> "0x7fff34000f20"[color=green];
"0x7fff88000ce0" -> "0x7fff28001ae0"[color=grey];
"0x7fffd4000b20"[label="K: 366 - H: 3"];
"0x7fffd4000b20" -> "0x7fffa80018a0"[color=blue];
"0x7fffd4000b20" -> "0x7fffa0001d60"[color=green];
"0x7fffd4000b20" -> "0x7fff88000ce0"[color=grey];
"0x7fffa80018a0"[label="K: 364 - H: 2"];
"0x7fffa80018a0" -> "0x7fff40000c60"[color=blue];
"0x7fffa80018a0" -> "0x7fff7c0012a0"[color=green];
"0x7fffa80018a0" -> "0x7fffd4000b20"[color=grey];
"0x7fff40000c60"[label="K: 363 - H: 1"];
"0x7fff40000c60" -> "0x7fffa80018a0"[color=grey];
"0x7fff7c0012a0"[label="K: 365 - H: 1"];
"0x7fff7c0012a0" -> "0x7fffa80018a0"[color=grey];
"0x7fffa0001d60"[label="K: 367 - H: 1"];
"0x7fffa0001d60" -> "0x7fffd4000b20"[color=grey];
"0x7fff34000f20"[label="K: 372 - H: 3"];
"0x7fff34000f20" -> "0x7fff10000d60"[color=blue];
"0x7fff34000f20" -> "0x7fff700012e0"[color=green];
"0x7fff34000f20" -> "0x7fff88000ce0"[color=grey];
"0x7fff10000d60"[label="K: 371 - H: 2"];
"0x7fff10000d60" -> "0x7fff40001aa0"[color=blue];
"0x7fff10000d60" -> "0x7fff34000f20"[color=grey];
"0x7fff40001aa0"[label="K: 370 - H: 1"];
"0x7fff40001aa0" -> "0x7fff10000d60"[color=grey];
"0x7fff700012e0"[label="K: 374 - H: 1"];
"0x7fff700012e0" -> "0x7fff34000f20"[color=grey];
"0x7fff40001260"[label="K: 388 - H: 5"];
"0x7fff40001260" -> "0x7ffeec001b60"[color=blue];
"0x7fff40001260" -> "0x7fff40001fa0"[color=green];
"0x7fff40001260" -> "0x7fff10001aa0"[color=grey];
"0x7ffeec001b60"[label="K: 385 - H: 3"];
"0x7ffeec001b60" -> "0x7fff38001760"[color=blue];
"0x7ffeec001b60" -> "0x7fff100019a0"[color=green];
"0x7ffeec001b60" -> "0x7fff40001260"[color=grey];
"0x7fff38001760"[label="K: 383 - H: 2"];
"0x7fff38001760" -> "0x7ffeec0025e0"[color=green];
"0x7fff38001760" -> "0x7ffeec001b60"[color=grey];
"0x7ffeec0025e0"[label="K: 384 - H: 1"];
"0x7ffeec0025e0" -> "0x7fff38001760"[color=grey];
"0x7fff100019a0"[label="K: 387 - H: 1"];
"0x7fff100019a0" -> "0x7ffeec001b60"[color=grey];
"0x7fff40001fa0"[label="K: 392 - H: 4"];
"0x7fff40001fa0" -> "0x7fff180013a0"[color=blue];
"0x7fff40001fa0" -> "0x7fff80001c60"[color=green];
"0x7fff40001fa0" -> "0x7fff40001260"[color=grey];
"0x7fff180013a0"[label="K: 390 - H: 2"];
"0x7fff180013a0" -> "0x7fff800025a0"[color=blue];
"0x7fff180013a0" -> "0x7fff28001360"[color=green];
"0x7fff180013a0" -> "0x7fff40001fa0"[color=grey];
"0x7fff800025a0"[label="K: 389 - H: 1"];
"0x7fff800025a0" -> "0x7fff180013a0"[color=grey];
"0x7fff28001360"[label="K: 391 - H: 1"];
"0x7fff28001360" -> "0x7fff180013a0"[color=grey];
"0x7fff80001c60"[label="K: 396 - H: 3"];
"0x7fff80001c60" -> "0x7fff00001aa0"[color=blue];
"0x7fff80001c60" -> "0x7fff50000f60"[color=green];
"0x7fff80001c60" -> "0x7fff40001fa0"[color=grey];
"0x7fff00001aa0"[label="K: 394 - H: 2"];
"0x7fff00001aa0" -> "0x7fffa8001860"[color=blue];
"0x7fff00001aa0" -> "0x7fff80001c60"[color=grey];
"0x7fffa8001860"[label="K: 393 - H: 1"];
"0x7fffa8001860" -> "0x7fff00001aa0"[color=grey];
"0x7fff50000f60"[label="K: 402 - H: 1"];
"0x7fff50000f60" -> "0x7fff80001c60"[color=grey];
"0x7fffc4000b20"[label="K: 431 - H: 6"];
"0x7fffc4000b20" -> "0x7fff70001c60"[color=blue];
"0x7fffc4000b20" -> "0x7fff58000c20"[color=green];
"0x7fffc4000b20" -> "0x7fff88001a20"[color=grey];
"0x7fff70001c60"[label="K: 417 - H: 5"];
"0x7fff70001c60" -> "0x7fff28000fa0"[color=blue];
"0x7fff70001c60" -> "0x7fff40001de0"[color=green];
"0x7fff70001c60" -> "0x7fffc4000b20"[color=grey];
"0x7fff28000fa0"[label="K: 409 - H: 4"];
"0x7fff28000fa0" -> "0x7fff6c0012e0"[color=blue];
"0x7fff28000fa0" -> "0x7fff34001a60"[color=green];
"0x7fff28000fa0" -> "0x7fff70001c60"[color=grey];
"0x7fff6c0012e0"[label="K: 405 - H: 3"];
"0x7fff6c0012e0" -> "0x7fff7c000ca0"[color=blue];
"0x7fff6c0012e0" -> "0x7fff58001820"[color=green];
"0x7fff6c0012e0" -> "0x7fff28000fa0"[color=grey];
"0x7fff7c000ca0"[label="K: 404 - H: 1"];
"0x7fff7c000ca0" -> "0x7fff6c0012e0"[color=grey];
"0x7fff58001820"[label="K: 406 - H: 2"];
"0x7fff58001820" -> "0x7fffb4001960"[color=green];
"0x7fff58001820" -> "0x7fff6c0012e0"[color=grey];
"0x7fffb4001960"[label="K: 407 - H: 1"];
"0x7fffb4001960" -> "0x7fff58001820"[color=grey];
"0x7fff34001a60"[label="K: 412 - H: 2"];
"0x7fff34001a60" -> "0x7fffa80012e0"[color=blue];
"0x7fff34001a60" -> "0x7fff60001e20"[color=green];
"0x7fff34001a60" -> "0x7fff28000fa0"[color=grey];
"0x7fffa80012e0"[label="K: 411 - H: 1"];
"0x7fffa80012e0" -> "0x7fff34001a60"[color=grey];
"0x7fff60001e20"[label="K: 415 - H: 1"];
"0x7fff60001e20" -> "0x7fff34001a60"[color=grey];
"0x7fff40001de0"[label="K: 423 - H: 4"];
"0x7fff40001de0" -> "0x7fff800019a0"[color=blue];
"0x7fff40001de0" -> "0x7fffa00014e0"[color=green];
"0x7fff40001de0" -> "0x7fff70001c60"[color=grey];
"0x7fff800019a0"[label="K: 421 - H: 2"];
"0x7fff800019a0" -> "0x7fff50000ba0"[color=blue];
"0x7fff800019a0" -> "0x7fff180015e0"[color=green];
"0x7fff800019a0" -> "0x7fff40001de0"[color=grey];
"0x7fff50000ba0"[label="K: 418 - H: 1"];
"0x7fff50000ba0" -> "0x7fff800019a0"[color=grey];
"0x7fff180015e0"[label="K: 422 - H: 1"];
"0x7fff180015e0" -> "0x7fff800019a0"[color=grey];
"0x7fffa00014e0"[label="K: 427 - H: 3"];
"0x7fffa00014e0" -> "0x7fff00001da0"[color=blue];
"0x7fffa00014e0" -> "0x7fff34001be0"[color=green];
"0x7fffa00014e0" -> "0x7fff40001de0"[color=grey];
"0x7fff00001da0"[label="K: 425 - H: 2"];
"0x7fff00001da0" -> "0x7fff180010a0"[color=green];
"0x7fff00001da0" -> "0x7fffa00014e0"[color=grey];
"0x7fff180010a0"[label="K: 426 - H: 1"];
"0x7fff180010a0" -> "0x7fff00001da0"[color=grey];
"0x7fff34001be0"[label="K: 429 - H: 1"];
"0x7fff34001be0" -> "0x7fffa00014e0"[color=grey];
"0x7fff58000c20"[label="K: 443 - H: 4"];
"0x7fff58000c20" -> "0x7fff34000f60"[color=blue];
"0x7fff58000c20" -> "0x7fff28001560"[color=green];
"0x7fff58000c20" -> "0x7fffc4000b20"[color=grey];
"0x7fff34000f60"[label="K: 434 - H: 3"];
"0x7fff34000f60" -> "0x7fff6c000ee0"[color=blue];
"0x7fff34000f60" -> "0x7fff6c001520"[color=green];
"0x7fff34000f60" -> "0x7fff58000c20"[color=grey];
"0x7fff6c000ee0"[label="K: 433 - H: 1"];
"0x7fff6c000ee0" -> "0x7fff34000f60"[color=grey];
"0x7fff6c001520"[label="K: 439 - H: 2"];
"0x7fff6c001520" -> "0x7fff38000e60"[color=blue];
"0x7fff6c001520" -> "0x7fffc0000b60"[color=green];
"0x7fff6c001520" -> "0x7fff34000f60"[color=grey];
"0x7fff38000e60"[label="K: 437 - H: 1"];
"0x7fff38000e60" -> "0x7fff6c001520"[color=grey];
"0x7fffc0000b60"[label="K: 440 - H: 1"];
"0x7fffc0000b60" -> "0x7fff6c001520"[color=grey];
"0x7fff28001560"[label="K: 448 - H: 3"];
"0x7fff28001560" -> "0x7fff64001da0"[color=blue];
"0x7fff28001560" -> "0x7fff34001fa0"[color=green];
"0x7fff28001560" -> "0x7fff58000c20"[color=grey];
"0x7fff64001da0"[label="K: 445 - H: 2"];
"0x7fff64001da0" -> "0x7fff64001560"[color=green];
"0x7fff64001da0" -> "0x7fff28001560"[color=grey];
"0x7fff64001560"[label="K: 447 - H: 1"];
"0x7fff64001560" -> "0x7fff64001da0"[color=grey];
"0x7fff34001fa0"[label="K: 452 - H: 2"];
"0x7fff34001fa0" -> "0x7fff58000fe0"[color=green];
"0x7fff34001fa0" -> "0x7fff28001560"[color=grey];
"0x7fff58000fe0"[label="K: 453 - H: 1"];
"0x7fff58000fe0" -> "0x7fff34001fa0"[color=grey];
"0x7fff600016e0"[label="K: 563 - H: 8"];
"0x7fff600016e0" -> "0x7fff640018e0"[color=blue];
"0x7fff600016e0" -> "0x7fff50000ee0"[color=green];
"0x7fff600016e0" -> "0x7fff28001b20"[color=grey];
"0x7fff640018e0"[label="K: 518 - H: 7"];
"0x7fff640018e0" -> "0x7fffb0000c20"[color=blue];
"0x7fff640018e0" -> "0x7fffd4001a20"[color=green];
"0x7fff640018e0" -> "0x7fff600016e0"[color=grey];
"0x7fffb0000c20"[label="K: 493 - H: 6"];
"0x7fffb0000c20" -> "0x7fff14000d60"[color=blue];
"0x7fffb0000c20" -> "0x7fff18001320"[color=green];
"0x7fffb0000c20" -> "0x7fff640018e0"[color=grey];
"0x7fff14000d60"[label="K: 465 - H: 5"];
"0x7fff14000d60" -> "0x7fff00000e60"[color=blue];
"0x7fff14000d60" -> "0x7fff64000c20"[color=green];
"0x7fff14000d60" -> "0x7fffb0000c20"[color=grey];
"0x7fff00000e60"[label="K: 461 - H: 3"];
"0x7fff00000e60" -> "0x7fff280017a0"[color=blue];
"0x7fff00000e60" -> "0x7fff340015a0"[color=green];
"0x7fff00000e60" -> "0x7fff14000d60"[color=grey];
"0x7fff280017a0"[label="K: 457 - H: 2"];
"0x7fff280017a0" -> "0x7fff640014e0"[color=blue];
"0x7fff280017a0" -> "0x7fffa8001b60"[color=green];
"0x7fff280017a0" -> "0x7fff00000e60"[color=grey];
"0x7fff640014e0"[label="K: 456 - H: 1"];
"0x7fff640014e0" -> "0x7fff280017a0"[color=grey];
"0x7fffa8001b60"[label="K: 458 - H: 1"];
"0x7fffa8001b60" -> "0x7fff280017a0"[color=grey];
"0x7fff340015a0"[label="K: 462 - H: 2"];
"0x7fff340015a0" -> "0x7fff64001f20"[color=green];
"0x7fff340015a0" -> "0x7fff00000e60"[color=grey];
"0x7fff64001f20"[label="K: 463 - H: 1"];
"0x7fff64001f20" -> "0x7fff340015a0"[color=grey];
"0x7fff64000c20"[label="K: 483 - H: 4"];
"0x7fff64000c20" -> "0x7fff58001420"[color=blue];
"0x7fff64000c20" -> "0x7fffd40019a0"[color=green];
"0x7fff64000c20" -> "0x7fff14000d60"[color=grey];
"0x7fff58001420"[label="K: 475 - H: 3"];
"0x7fff58001420" -> "0x7fff140017e0"[color=blue];
"0x7fff58001420" -> "0x7fffb4001e60"[color=green];
"0x7fff58001420" -> "0x7fff64000c20"[color=grey];
"0x7fff140017e0"[label="K: 469 - H: 2"];
"0x7fff140017e0" -> "0x7fff340023a0"[color=blue];
"0x7fff140017e0" -> "0x7fffa80010e0"[color=green];
"0x7fff140017e0" -> "0x7fff58001420"[color=grey];
"0x7fff340023a0"[label="K: 467 - H: 1"];
"0x7fff340023a0" -> "0x7fff140017e0"[color=grey];
"0x7fffa80010e0"[label="K: 474 - H: 1"];
"0x7fffa80010e0" -> "0x7fff140017e0"[color=grey];
"0x7fffb4001e60"[label="K: 476 - H: 2"];
"0x7fffb4001e60" -> "0x7fffb40023a0"[color=green];
"0x7fffb4001e60" -> "0x7fff58001420"[color=grey];
"0x7fffb40023a0"[label="K: 478 - H: 1"];
"0x7fffb40023a0" -> "0x7fffb4001e60"[color=grey];
"0x7fffd40019a0"[label="K: 492 - H: 2"];
"0x7fffd40019a0" -> "0x7fff50001320"[color=blue];
"0x7fffd40019a0" -> "0x7fff64000c20"[color=grey];
"0x7fff50001320"[label="K: 485 - H: 1"];
"0x7fff50001320" -> "0x7fffd40019a0"[color=grey];
"0x7fff18001320"[label="K: 508 - H: 4"];
"0x7fff18001320" -> "0x7fff14001ca0"[color=blue];
"0x7fff18001320" -> "0x7fff800018e0"[color=green];
"0x7fff18001320" -> "0x7fffb0000c20"[color=grey];
"0x7fff14001ca0"[label="K: 502 - H: 3"];
"0x7fff14001ca0" -> "0x7ffeec001fe0"[color=blue];
"0x7fff14001ca0" -> "0x7fff50000e20"[color=green];
"0x7fff14001ca0" -> "0x7fff18001320"[color=grey];
"0x7ffeec001fe0"[label="K: 498 - H: 2"];
"0x7ffeec001fe0" -> "0x7fff64000be0"[color=blue];
"0x7ffeec001fe0" -> "0x7fff7c001ce0"[color=green];
"0x7ffeec001fe0" -> "0x7fff14001ca0"[color=grey];
"0x7fff64000be0"[label="K: 496 - H: 1"];
"0x7fff64000be0" -> "0x7ffeec001fe0"[color=grey];
"0x7fff7c001ce0"[label="K: 499 - H: 1"];
"0x7fff7c001ce0" -> "0x7ffeec001fe0"[color=grey];
"0x7fff50000e20"[label="K: 505 - H: 2"];
"0x7fff50000e20" -> "0x7fff00001660"[color=blue];
"0x7fff50000e20" -> "0x7fff14001ca0"[color=grey];
"0x7fff00001660"[label="K: 504 - H: 1"];
"0x7fff00001660" -> "0x7fff50000e20"[color=grey];
"0x7fff800018e0"[label="K: 513 - H: 3"];
"0x7fff800018e0" -> "0x7fff7c000ee0"[color=blue];
"0x7fff800018e0" -> "0x7fff64000d60"[color=green];
"0x7fff800018e0" -> "0x7fff18001320"[color=grey];
"0x7fff7c000ee0"[label="K: 510 - H: 2"];
"0x7fff7c000ee0" -> "0x7fff88001760"[color=blue];
"0x7fff7c000ee0" -> "0x7fff180017e0"[color=green];
"0x7fff7c000ee0" -> "0x7fff800018e0"[color=grey];
"0x7fff88001760"[label="K: 509 - H: 1"];
"0x7fff88001760" -> "0x7fff7c000ee0"[color=grey];
"0x7fff180017e0"[label="K: 511 - H: 1"];
"0x7fff180017e0" -> "0x7fff7c000ee0"[color=grey];
"0x7fff64000d60"[label="K: 514 - H: 2"];
"0x7fff64000d60" -> "0x7fffb4001660"[color=green];
"0x7fff64000d60" -> "0x7fff800018e0"[color=grey];
"0x7fffb4001660"[label="K: 516 - H: 1"];
"0x7fffb4001660" -> "0x7fff64000d60"[color=grey];
"0x7fffd4001a20"[label="K: 550 - H: 5"];
"0x7fffd4001a20" -> "0x7fff10001d20"[color=blue];
"0x7fffd4001a20" -> "0x7fff18000ce0"[color=green];
"0x7fffd4001a20" -> "0x7fff640018e0"[color=grey];
"0x7fff10001d20"[label="K: 536 - H: 4"];
"0x7fff10001d20" -> "0x7fff28001160"[color=blue];
"0x7fff10001d20" -> "0x7fff28001be0"[color=green];
"0x7fff10001d20" -> "0x7fffd4001a20"[color=grey];
"0x7fff28001160"[label="K: 521 - H: 3"];
"0x7fff28001160" -> "0x7fffb4001d20"[color=blue];
"0x7fff28001160" -> "0x7fffa0001ba0"[color=green];
"0x7fff28001160" -> "0x7fff10001d20"[color=grey];
"0x7fffb4001d20"[label="K: 519 - H: 1"];
"0x7fffb4001d20" -> "0x7fff28001160"[color=grey];
"0x7fffa0001ba0"[label="K: 526 - H: 2"];
"0x7fffa0001ba0" -> "0x7fff00002360"[color=blue];
"0x7fffa0001ba0" -> "0x7fff28001160"[color=grey];
"0x7fff00002360"[label="K: 523 - H: 1"];
"0x7fff00002360" -> "0x7fffa0001ba0"[color=grey];
"0x7fff28001be0"[label="K: 542 - H: 3"];
"0x7fff28001be0" -> "0x7fff00001fe0"[color=blue];
"0x7fff28001be0" -> "0x7fffd4001520"[color=green];
"0x7fff28001be0" -> "0x7fff10001d20"[color=grey];
"0x7fff00001fe0"[label="K: 538 - H: 2"];
"0x7fff00001fe0" -> "0x7fffa8000c60"[color=blue];
"0x7fff00001fe0" -> "0x7fffb4001360"[color=green];
"0x7fff00001fe0" -> "0x7fff28001be0"[color=grey];
"0x7fffa8000c60"[label="K: 537 - H: 1"];
"0x7fffa8000c60" -> "0x7fff00001fe0"[color=grey];
"0x7fffb4001360"[label="K: 540 - H: 1"];
"0x7fffb4001360" -> "0x7fff00001fe0"[color=grey];
"0x7fffd4001520"[label="K: 545 - H: 1"];
"0x7fffd4001520" -> "0x7fff28001be0"[color=grey];
"0x7fff18000ce0"[label="K: 556 - H: 4"];
"0x7fff18000ce0" -> "0x7fffc4001020"[color=blue];
"0x7fff18000ce0" -> "0x7fff34000ee0"[color=green];
"0x7fff18000ce0" -> "0x7fffd4001a20"[color=grey];
"0x7fffc4001020"[label="K: 554 - H: 3"];
"0x7fffc4001020" -> "0x7fff00002620"[color=blue];
"0x7fffc4001020" -> "0x7fffb00019e0"[color=green];
"0x7fffc4001020" -> "0x7fff18000ce0"[color=grey];
"0x7fff00002620"[label="K: 553 - H: 2"];
"0x7fff00002620" -> "0x7fffb4001a20"[color=blue];
"0x7fff00002620" -> "0x7fffc4001020"[color=grey];
"0x7fffb4001a20"[label="K: 551 - H: 1"];
"0x7fffb4001a20" -> "0x7fff00002620"[color=grey];
"0x7fffb00019e0"[label="K: 555 - H: 1"];
"0x7fffb00019e0" -> "0x7fffc4001020"[color=grey];
"0x7fff34000ee0"[label="K: 558 - H: 2"];
"0x7fff34000ee0" -> "0x7fffa8000d20"[color=blue];
"0x7fff34000ee0" -> "0x7fffa8000e20"[color=green];
"0x7fff34000ee0" -> "0x7fff18000ce0"[color=grey];
"0x7fffa8000d20"[label="K: 557 - H: 1"];
"0x7fffa8000d20" -> "0x7fff34000ee0"[color=grey];
"0x7fffa8000e20"[label="K: 559 - H: 1"];
"0x7fffa8000e20" -> "0x7fff34000ee0"[color=grey];
"0x7fff50000ee0"[label="K: 595 - H: 6"];
"0x7fff50000ee0" -> "0x7fff10001460"[color=blue];
"0x7fff50000ee0" -> "0x7fff98000b20"[color=green];
"0x7fff50000ee0" -> "0x7fff600016e0"[color=grey];
"0x7fff10001460"[label="K: 582 - H: 5"];
"0x7fff10001460" -> "0x7fff500014a0"[color=blue];
"0x7fff10001460" -> "0x7fff18000c20"[color=green];
"0x7fff10001460" -> "0x7fff50000ee0"[color=grey];
"0x7fff500014a0"[label="K: 572 - H: 4"];
"0x7fff500014a0" -> "0x7fff28000ca0"[color=blue];
"0x7fff500014a0" -> "0x7fff340018e0"[color=green];
"0x7fff500014a0" -> "0x7fff10001460"[color=grey];
"0x7fff28000ca0"[label="K: 568 - H: 3"];
"0x7fff28000ca0" -> "0x7fff100014a0"[color=blue];
"0x7fff28000ca0" -> "0x7fffa0001820"[color=green];
"0x7fff28000ca0" -> "0x7fff500014a0"[color=grey];
"0x7fff100014a0"[label="K: 564 - H: 2"];
"0x7fff100014a0" -> "0x7fff50001620"[color=green];
"0x7fff100014a0" -> "0x7fff28000ca0"[color=grey];
"0x7fff50001620"[label="K: 565 - H: 1"];
"0x7fff50001620" -> "0x7fff100014a0"[color=grey];
"0x7fffa0001820"[label="K: 570 - H: 1"];
"0x7fffa0001820" -> "0x7fff28000ca0"[color=grey];
"0x7fff340018e0"[label="K: 576 - H: 2"];
"0x7fff340018e0" -> "0x7fff40001ea0"[color=blue];
"0x7fff340018e0" -> "0x7fff6c000ce0"[color=green];
"0x7fff340018e0" -> "0x7fff500014a0"[color=grey];
"0x7fff40001ea0"[label="K: 574 - H: 1"];
"0x7fff40001ea0" -> "0x7fff340018e0"[color=grey];
"0x7fff6c000ce0"[label="K: 577 - H: 1"];
"0x7fff6c000ce0" -> "0x7fff340018e0"[color=grey];
"0x7fff18000c20"[label="K: 587 - H: 3"];
"0x7fff18000c20" -> "0x7ffeec0020e0"[color=blue];
"0x7fff18000c20" -> "0x7fff50001c60"[color=green];
"0x7fff18000c20" -> "0x7fff10001460"[color=grey];
"0x7ffeec0020e0"[label="K: 584 - H: 2"];
"0x7ffeec0020e0" -> "0x7fffb4001de0"[color=blue];
"0x7ffeec0020e0" -> "0x7fff18000c20"[color=grey];
"0x7fffb4001de0"[label="K: 583 - H: 1"];
"0x7fffb4001de0" -> "0x7ffeec0020e0"[color=grey];
"0x7fff50001c60"[label="K: 591 - H: 2"];
"0x7fff50001c60" -> "0x7fff180012e0"[color=blue];
"0x7fff50001c60" -> "0x7fffb4001d60"[color=green];
"0x7fff50001c60" -> "0x7fff18000c20"[color=grey];
"0x7fff180012e0"[label="K: 590 - H: 1"];
"0x7fff180012e0" -> "0x7fff50001c60"[color=grey];
"0x7fffb4001d60"[label="K: 592 - H: 1"];
"0x7fffb4001d60" -> "0x7fff50001c60"[color=grey];
"0x7fff98000b20"[label="K: 627 - H: 5"];
"0x7fff98000b20" -> "0x7fff58001320"[color=blue];
"0x7fff98000b20" -> "0x7fff34001a20"[color=green];
"0x7fff98000b20" -> "0x7fff50000ee0"[color=grey];
"0x7fff58001320"[label="K: 602 - H: 4"];
"0x7fff58001320" -> "0x7fff98001320"[color=blue];
"0x7fff58001320" -> "0x7fff64000d20"[color=green];
"0x7fff58001320" -> "0x7fff98000b20"[color=grey];
"0x7fff98001320"[label="K: 600 - H: 2"];
"0x7fff98001320" -> "0x7fff50001aa0"[color=blue];
"0x7fff98001320" -> "0x7fff340013e0"[color=green];
"0x7fff98001320" -> "0x7fff58001320"[color=grey];
"0x7fff50001aa0"[label="K: 596 - H: 1"];
"0x7fff50001aa0" -> "0x7fff98001320"[color=grey];
"0x7fff340013e0"[label="K: 601 - H: 1"];
"0x7fff340013e0" -> "0x7fff98001320"[color=grey];
"0x7fff64000d20"[label="K: 612 - H: 3"];
"0x7fff64000d20" -> "0x7fffb40017e0"[color=blue];
"0x7fff64000d20" -> "0x7fffd4000ea0"[color=green];
"0x7fff64000d20" -> "0x7fff58001320"[color=grey];
"0x7fffb40017e0"[label="K: 607 - H: 2"];
"0x7fffb40017e0" -> "0x7fff58000d20"[color=green];
"0x7fffb40017e0" -> "0x7fff64000d20"[color=grey];
"0x7fff58000d20"[label="K: 611 - H: 1"];
"0x7fff58000d20" -> "0x7fffb40017e0"[color=grey];
"0x7fffd4000ea0"[label="K: 615 - H: 2"];
"0x7fffd4000ea0" -> "0x7fff64001360"[color=blue];
"0x7fffd4000ea0" -> "0x7fff34002260"[color=green];
"0x7fffd4000ea0" -> "0x7fff64000d20"[color=grey];
"0x7fff64001360"[label="K: 614 - H: 1"];
"0x7fff64001360" -> "0x7fffd4000ea0"[color=grey];
"0x7fff34002260"[label="K: 616 - H: 1"];
"0x7fff34002260" -> "0x7fffd4000ea0"[color=grey];
"0x7fff34001a20"[label="K: 636 - H: 3"];
"0x7fff34001a20" -> "0x7fff40001420"[color=blue];
"0x7fff34001a20" -> "0x7fff500017a0"[color=green];
"0x7fff34001a20" -> "0x7fff98000b20"[color=grey];
"0x7fff40001420"[label="K: 632 - H: 2"];
"0x7fff40001420" -> "0x7fffa80018e0"[color=blue];
"0x7fff40001420" -> "0x7fff34001b20"[color=green];
"0x7fff40001420" -> "0x7fff34001a20"[color=grey];
"0x7fffa80018e0"[label="K: 631 - H: 1"];
"0x7fffa80018e0" -> "0x7fff40001420"[color=grey];
"0x7fff34001b20"[label="K: 635 - H: 1"];
"0x7fff34001b20" -> "0x7fff40001420"[color=grey];
"0x7fff500017a0"[label="K: 641 - H: 2"];
"0x7fff500017a0" -> "0x7fff00001f20"[color=blue];
"0x7fff500017a0" -> "0x7fff34001a20"[color=grey];
"0x7fff00001f20"[label="K: 637 - H: 1"];
"0x7fff00001f20" -> "0x7fff500017a0"[color=grey];
"0x7fff58000fa0"[label="K: 840 - H: 9"];
"0x7fff58000fa0" -> "0x7fff00001720"[color=blue];
"0x7fff58000fa0" -> "0x7fff40001ca0"[color=green];
"0x7fff58000fa0" -> "0x7fff58001220"[color=grey];
"0x7fff00001720"[label="K: 759 - H: 8"];
"0x7fff00001720" -> "0x7fffa8000f60"[color=blue];
"0x7fff00001720" -> "0x7fff700016a0"[color=green];
"0x7fff00001720" -> "0x7fff58000fa0"[color=grey];
"0x7fffa8000f60"[label="K: 707 - H: 7"];
"0x7fffa8000f60" -> "0x7fffb00015a0"[color=blue];
"0x7fffa8000f60" -> "0x7fffc4000da0"[color=green];
"0x7fffa8000f60" -> "0x7fff00001720"[color=grey];
"0x7fffb00015a0"[label="K: 687 - H: 6"];
"0x7fffb00015a0" -> "0x7fff140011a0"[color=blue];
"0x7fffb00015a0" -> "0x7fff7c0017a0"[color=green];
"0x7fffb00015a0" -> "0x7fffa8000f60"[color=grey];
"0x7fff140011a0"[label="K: 656 - H: 5"];
"0x7fff140011a0" -> "0x7fffd4000ce0"[color=blue];
"0x7fff140011a0" -> "0x7fffa80016e0"[color=green];
"0x7fff140011a0" -> "0x7fffb00015a0"[color=grey];
"0x7fffd4000ce0"[label="K: 647 - H: 3"];
"0x7fffd4000ce0" -> "0x7fff14000fa0"[color=blue];
"0x7fffd4000ce0" -> "0x7fffd4001820"[color=green];
"0x7fffd4000ce0" -> "0x7fff140011a0"[color=grey];
"0x7fff14000fa0"[label="K: 646 - H: 2"];
"0x7fff14000fa0" -> "0x7fff64001ba0"[color=blue];
"0x7fff14000fa0" -> "0x7fffd4000ce0"[color=grey];
"0x7fff64001ba0"[label="K: 645 - H: 1"];
"0x7fff64001ba0" -> "0x7fff14000fa0"[color=grey];
"0x7fffd4001820"[label="K: 650 - H: 2"];
"0x7fffd4001820" -> "0x7fff00000fa0"[color=blue];
"0x7fffd4001820" -> "0x7fff70001ba0"[color=green];
"0x7fffd4001820" -> "0x7fffd4000ce0"[color=grey];
"0x7fff00000fa0"[label="K: 648 - H: 1"];
"0x7fff00000fa0" -> "0x7fffd4001820"[color=grey];
"0x7fff70001ba0"[label="K: 654 - H: 1"];
"0x7fff70001ba0" -> "0x7fffd4001820"[color=grey];
"0x7fffa80016e0"[label="K: 678 - H: 4"];
"0x7fffa80016e0" -> "0x7fff88000c60"[color=blue];
"0x7fffa80016e0" -> "0x7fff50001120"[color=green];
"0x7fffa80016e0" -> "0x7fff140011a0"[color=grey];
"0x7fff88000c60"[label="K: 667 - H: 3"];
"0x7fff88000c60" -> "0x7fff28000ea0"[color=blue];
"0x7fff88000c60" -> "0x7fff28001c20"[color=green];
"0x7fff88000c60" -> "0x7fffa80016e0"[color=grey];
"0x7fff28000ea0"[label="K: 661 - H: 2"];
"0x7fff28000ea0" -> "0x7fffb0000da0"[color=blue];
"0x7fff28000ea0" -> "0x7fff34001520"[color=green];
"0x7fff28000ea0" -> "0x7fff88000c60"[color=grey];
"0x7fffb0000da0"[label="K: 657 - H: 1"];
"0x7fffb0000da0" -> "0x7fff28000ea0"[color=grey];
"0x7fff34001520"[label="K: 665 - H: 1"];
"0x7fff34001520" -> "0x7fff28000ea0"[color=grey];
"0x7fff28001c20"[label="K: 670 - H: 2"];
"0x7fff28001c20" -> "0x7fff10000f60"[color=green];
"0x7fff28001c20" -> "0x7fff88000c60"[color=grey];
"0x7fff10000f60"[label="K: 672 - H: 1"];
"0x7fff10000f60" -> "0x7fff28001c20"[color=grey];
"0x7fff50001120"[label="K: 683 - H: 3"];
"0x7fff50001120" -> "0x7fff500014e0"[color=blue];
"0x7fff50001120" -> "0x7fff34001ce0"[color=green];
"0x7fff50001120" -> "0x7fffa80016e0"[color=grey];
"0x7fff500014e0"[label="K: 680 - H: 2"];
"0x7fff500014e0" -> "0x7fff60002020"[color=green];
"0x7fff500014e0" -> "0x7fff50001120"[color=grey];
"0x7fff60002020"[label="K: 681 - H: 1"];
"0x7fff60002020" -> "0x7fff500014e0"[color=grey];
"0x7fff34001ce0"[label="K: 685 - H: 1"];
"0x7fff34001ce0" -> "0x7fff50001120"[color=grey];
"0x7fff7c0017a0"[label="K: 702 - H: 4"];
"0x7fff7c0017a0" -> "0x7fffb0000c60"[color=blue];
"0x7fff7c0017a0" -> "0x7fff18000b20"[color=green];
"0x7fff7c0017a0" -> "0x7fffb00015a0"[color=grey];
"0x7fffb0000c60"[label="K: 696 - H: 3"];
"0x7fffb0000c60" -> "0x7fffc00012e0"[color=blue];
"0x7fffb0000c60" -> "0x7ffeec002560"[color=green];
"0x7fffb0000c60" -> "0x7fff7c0017a0"[color=grey];
"0x7fffc00012e0"[label="K: 689 - H: 2"];
"0x7fffc00012e0" -> "0x7fff80000d20"[color=green];
"0x7fffc00012e0" -> "0x7fffb0000c60"[color=grey];
"0x7fff80000d20"[label="K: 691 - H: 1"];
"0x7fff80000d20" -> "0x7fffc00012e0"[color=grey];
"0x7ffeec002560"[label="K: 700 - H: 2"];
"0x7ffeec002560" -> "0x7fffa8001ca0"[color=blue];
"0x7ffeec002560" -> "0x7fffa8000ba0"[color=green];
"0x7ffeec002560" -> "0x7fffb0000c60"[color=grey];
"0x7fffa8001ca0"[label="K: 698 - H: 1"];
"0x7fffa8001ca0" -> "0x7ffeec002560"[color=grey];
"0x7fffa8000ba0"[label="K: 701 - H: 1"];
"0x7fffa8000ba0" -> "0x7ffeec002560"[color=grey];
"0x7fff18000b20"[label="K: 704 - H: 2"];
"0x7fff18000b20" -> "0x7fffb4001020"[color=blue];
"0x7fff18000b20" -> "0x7fff50001920"[color=green];
"0x7fff18000b20" -> "0x7fff7c0017a0"[color=grey];
"0x7fffb4001020"[label="K: 703 - H: 1"];
"0x7fffb4001020" -> "0x7fff18000b20"[color=grey];
"0x7fff50001920"[label="K: 705 - H: 1"];
"0x7fff50001920" -> "0x7fff18000b20"[color=grey];
"0x7fffc4000da0"[label="K: 726 - H: 6"];
"0x7fffc4000da0" -> "0x7fff280017e0"[color=blue];
"0x7fffc4000da0" -> "0x7fff50001220"[color=green];
"0x7fffc4000da0" -> "0x7fffa8000f60"[color=grey];
"0x7fff280017e0"[label="K: 718 - H: 4"];
"0x7fff280017e0" -> "0x7fffb4001060"[color=blue];
"0x7fff280017e0" -> "0x7fff64001060"[color=green];
"0x7fff280017e0" -> "0x7fffc4000da0"[color=grey];
"0x7fffb4001060"[label="K: 712 - H: 3"];
"0x7fffb4001060" -> "0x7fffa8001d20"[color=blue];
"0x7fffb4001060" -> "0x7fffb4001920"[color=green];
"0x7fffb4001060" -> "0x7fff280017e0"[color=grey];
"0x7fffa8001d20"[label="K: 709 - H: 2"];
"0x7fffa8001d20" -> "0x7fff00000ee0"[color=blue];
"0x7fffa8001d20" -> "0x7fff88000d60"[color=green];
"0x7fffa8001d20" -> "0x7fffb4001060"[color=grey];
"0x7fff00000ee0"[label="K: 708 - H: 1"];
"0x7fff00000ee0" -> "0x7fffa8001d20"[color=grey];
"0x7fff88000d60"[label="K: 710 - H: 1"];
"0x7fff88000d60" -> "0x7fffa8001d20"[color=grey];
"0x7fffb4001920"[label="K: 716 - H: 2"];
"0x7fffb4001920" -> "0x7fff6c000c60"[color=blue];
"0x7fffb4001920" -> "0x7fff10001d60"[color=green];
"0x7fffb4001920" -> "0x7fffb4001060"[color=grey];
"0x7fff6c000c60"[label="K: 715 - H: 1"];
"0x7fff6c000c60" -> "0x7fffb4001920"[color=grey];
"0x7fff10001d60"[label="K: 717 - H: 1"];
"0x7fff10001d60" -> "0x7fffb4001920"[color=grey];
"0x7fff64001060"[label="K: 721 - H: 3"];
"0x7fff64001060" -> "0x7fff28001aa0"[color=blue];
"0x7fff64001060" -> "0x7fffb4001560"[color=green];
"0x7fff64001060" -> "0x7fff280017e0"[color=grey];
"0x7fff28001aa0"[label="K: 719 - H: 2"];
"0x7fff28001aa0" -> "0x7fffa8001060"[color=green];
"0x7fff28001aa0" -> "0x7fff64001060"[color=grey];
"0x7fffa8001060"[label="K: 720 - H: 1"];
"0x7fffa8001060" -> "0x7fff28001aa0"[color=grey];
"0x7fffb4001560"[label="K: 723 - H: 1"];
"0x7fffb4001560" -> "0x7fff64001060"[color=grey];
"0x7fff50001220"[label="K: 743 - H: 5"];
"0x7fff50001220" -> "0x7fff88001520"[color=blue];
"0x7fff50001220" -> "0x7fff10000b60"[color=green];
"0x7fff50001220" -> "0x7fffc4000da0"[color=grey];
"0x7fff88001520"[label="K: 732 - H: 4"];
"0x7fff88001520" -> "0x7fff7c001060"[color=blue];
"0x7fff88001520" -> "0x7fffb0001560"[color=green];
"0x7fff88001520" -> "0x7fff50001220"[color=grey];
"0x7fff7c001060"[label="K: 729 - H: 2"];
"0x7fff7c001060" -> "0x7ffeec001920"[color=blue];
"0x7fff7c001060" -> "0x7fffa8001b20"[color=green];
"0x7fff7c001060" -> "0x7fff88001520"[color=grey];
"0x7ffeec001920"[label="K: 727 - H: 1"];
"0x7ffeec001920" -> "0x7fff7c001060"[color=grey];
"0x7fffa8001b20"[label="K: 730 - H: 1"];
"0x7fffa8001b20" -> "0x7fff7c001060"[color=grey];
"0x7fffb0001560"[label="K: 737 - H: 3"];
"0x7fffb0001560" -> "0x7fffd4001a60"[color=blue];
"0x7fffb0001560" -> "0x7fff64000b20"[color=green];
"0x7fffb0001560" -> "0x7fff88001520"[color=grey];
"0x7fffd4001a60"[label="K: 733 - H: 1"];
"0x7fffd4001a60" -> "0x7fffb0001560"[color=grey];
"0x7fff64000b20"[label="K: 742 - H: 2"];
"0x7fff64000b20" -> "0x7fff88001720"[color=blue];
"0x7fff64000b20" -> "0x7fffb0001560"[color=grey];
"0x7fff88001720"[label="K: 741 - H: 1"];
"0x7fff88001720" -> "0x7fff64000b20"[color=grey];
"0x7fff10000b60"[label="K: 756 - H: 4"];
"0x7fff10000b60" -> "0x7fffa8001c60"[color=blue];
"0x7fff10000b60" -> "0x7fffb40012e0"[color=green];
"0x7fff10000b60" -> "0x7fff50001220"[color=grey];
"0x7fffa8001c60"[label="K: 750 - H: 3"];
"0x7fffa8001c60" -> "0x7fff34001160"[color=blue];
"0x7fffa8001c60" -> "0x7fffa8001020"[color=green];
"0x7fffa8001c60" -> "0x7fff10000b60"[color=grey];
"0x7fff34001160"[label="K: 748 - H: 2"];
"0x7fff34001160" -> "0x7fffb4000ca0"[color=blue];
"0x7fff34001160" -> "0x7fffb4001ee0"[color=green];
"0x7fff34001160" -> "0x7fffa8001c60"[color=grey];
"0x7fffb4000ca0"[label="K: 745 - H: 1"];
"0x7fffb4000ca0" -> "0x7fff34001160"[color=grey];
"0x7fffb4001ee0"[label="K: 749 - H: 1"];
"0x7fffb4001ee0" -> "0x7fff34001160"[color=grey];
"0x7fffa8001020"[label="K: 752 - H: 2"];
"0x7fffa8001020" -> "0x7fff28000f20"[color=blue];
"0x7fffa8001020" -> "0x7fffa8001c60"[color=grey];
"0x7fff28000f20"[label="K: 751 - H: 1"];
"0x7fff28000f20" -> "0x7fffa8001020"[color=grey];
"0x7fffb40012e0"[label="K: 758 - H: 2"];
"0x7fffb40012e0" -> "0x7fff7c0015a0"[color=blue];
"0x7fffb40012e0" -> "0x7fff10000b60"[color=grey];
"0x7fff7c0015a0"[label="K: 757 - H: 1"];
"0x7fff7c0015a0" -> "0x7fffb40012e0"[color=grey];
"0x7fff700016a0"[label="K: 799 - H: 6"];
"0x7fff700016a0" -> "0x7fff500019e0"[color=blue];
"0x7fff700016a0" -> "0x7fff84000d60"[color=green];
"0x7fff700016a0" -> "0x7fff00001720"[color=grey];
"0x7fff500019e0"[label="K: 781 - H: 5"];
"0x7fff500019e0" -> "0x7fff10001b20"[color=blue];
"0x7fff500019e0" -> "0x7ffeec001de0"[color=green];
"0x7fff500019e0" -> "0x7fff700016a0"[color=grey];
"0x7fff10001b20"[label="K: 769 - H: 4"];
"0x7fff10001b20" -> "0x7fff58001620"[color=blue];
"0x7fff10001b20" -> "0x7fff880010e0"[color=green];
"0x7fff10001b20" -> "0x7fff500019e0"[color=grey];
"0x7fff58001620"[label="K: 765 - H: 3"];
"0x7fff58001620" -> "0x7fff34000b20"[color=blue];
"0x7fff58001620" -> "0x7fff34000fa0"[color=green];
"0x7fff58001620" -> "0x7fff10001b20"[color=grey];
"0x7fff34000b20"[label="K: 762 - H: 2"];
"0x7fff34000b20" -> "0x7fff34001460"[color=blue];
"0x7fff34000b20" -> "0x7fff58001620"[color=grey];
"0x7fff34001460"[label="K: 760 - H: 1"];
"0x7fff34001460" -> "0x7fff34000b20"[color=grey];
"0x7fff34000fa0"[label="K: 768 - H: 2"];
"0x7fff34000fa0" -> "0x7fffb4002220"[color=blue];
"0x7fff34000fa0" -> "0x7fff58001620"[color=grey];
"0x7fffb4002220"[label="K: 766 - H: 1"];
"0x7fffb4002220" -> "0x7fff34000fa0"[color=grey];
"0x7fff880010e0"[label="K: 773 - H: 3"];
"0x7fff880010e0" -> "0x7fff10001f20"[color=blue];
"0x7fff880010e0" -> "0x7fffd4001d60"[color=green];
"0x7fff880010e0" -> "0x7fff10001b20"[color=grey];
"0x7fff10001f20"[label="K: 770 - H: 2"];
"0x7fff10001f20" -> "0x7fffb0001320"[color=green];
"0x7fff10001f20" -> "0x7fff880010e0"[color=grey];
"0x7fffb0001320"[label="K: 771 - H: 1"];
"0x7fffb0001320" -> "0x7fff10001f20"[color=grey];
"0x7fffd4001d60"[label="K: 776 - H: 2"];
"0x7fffd4001d60" -> "0x7fffc40012e0"[color=blue];
"0x7fffd4001d60" -> "0x7ffeec001ce0"[color=green];
"0x7fffd4001d60" -> "0x7fff880010e0"[color=grey];
"0x7fffc40012e0"[label="K: 774 - H: 1"];
"0x7fffc40012e0" -> "0x7fffd4001d60"[color=grey];
"0x7ffeec001ce0"[label="K: 780 - H: 1"];
"0x7ffeec001ce0" -> "0x7fffd4001d60"[color=grey];
"0x7ffeec001de0"[label="K: 792 - H: 4"];
"0x7ffeec001de0" -> "0x7fff14001360"[color=blue];
"0x7ffeec001de0" -> "0x7fff50000b20"[color=green];
"0x7ffeec001de0" -> "0x7fff500019e0"[color=grey];
"0x7fff14001360"[label="K: 785 - H: 3"];
"0x7fff14001360" -> "0x7fff10001160"[color=blue];
"0x7fff14001360" -> "0x7fff38000de0"[color=green];
"0x7fff14001360" -> "0x7ffeec001de0"[color=grey];
"0x7fff10001160"[label="K: 783 - H: 1"];
"0x7fff10001160" -> "0x7fff14001360"[color=grey];
"0x7fff38000de0"[label="K: 788 - H: 2"];
"0x7fff38000de0" -> "0x7fffa80013e0"[color=blue];
"0x7fff38000de0" -> "0x7fff34002360"[color=green];
"0x7fff38000de0" -> "0x7fff14001360"[color=grey];
"0x7fffa80013e0"[label="K: 787 - H: 1"];
"0x7fffa80013e0" -> "0x7fff38000de0"[color=grey];
"0x7fff34002360"[label="K: 789 - H: 1"];
"0x7fff34002360" -> "0x7fff38000de0"[color=grey];
"0x7fff50000b20"[label="K: 795 - H: 3"];
"0x7fff50000b20" -> "0x7fff64001320"[color=blue];
"0x7fff50000b20" -> "0x7fff6c000d60"[color=green];
"0x7fff50000b20" -> "0x7ffeec001de0"[color=grey];
"0x7fff64001320"[label="K: 793 - H: 2"];
"0x7fff64001320" -> "0x7fff98000e20"[color=green];
"0x7fff64001320" -> "0x7fff50000b20"[color=grey];
"0x7fff98000e20"[label="K: 794 - H: 1"];
"0x7fff98000e20" -> "0x7fff64001320"[color=grey];
"0x7fff6c000d60"[label="K: 797 - H: 2"];
"0x7fff6c000d60" -> "0x7fff10000ca0"[color=green];
"0x7fff6c000d60" -> "0x7fff50000b20"[color=grey];
"0x7fff10000ca0"[label="K: 798 - H: 1"];
"0x7fff10000ca0" -> "0x7fff6c000d60"[color=grey];
"0x7fff84000d60"[label="K: 817 - H: 5"];
"0x7fff84000d60" -> "0x7fffb00018a0"[color=blue];
"0x7fff84000d60" -> "0x7fff40001320"[color=green];
"0x7fff84000d60" -> "0x7fff700016a0"[color=grey];
"0x7fffb00018a0"[label="K: 809 - H: 4"];
"0x7fffb00018a0" -> "0x7fff50000b60"[color=blue];
"0x7fffb00018a0" -> "0x7fff40000c20"[color=green];
"0x7fffb00018a0" -> "0x7fff84000d60"[color=grey];
"0x7fff50000b60"[label="K: 802 - H: 3"];
"0x7fff50000b60" -> "0x7fff40001ba0"[color=blue];
"0x7fff50000b60" -> "0x7fff800022a0"[color=green];
"0x7fff50000b60" -> "0x7fffb00018a0"[color=grey];
"0x7fff40001ba0"[label="K: 800 - H: 2"];
"0x7fff40001ba0" -> "0x7fff100012a0"[color=green];
"0x7fff40001ba0" -> "0x7fff50000b60"[color=grey];
"0x7fff100012a0"[label="K: 801 - H: 1"];
"0x7fff100012a0" -> "0x7fff40001ba0"[color=grey];
"0x7fff800022a0"[label="K: 806 - H: 2"];
"0x7fff800022a0" -> "0x7fff280012e0"[color=blue];
"0x7fff800022a0" -> "0x7fff00001c20"[color=green];
"0x7fff800022a0" -> "0x7fff50000b60"[color=grey];
"0x7fff280012e0"[label="K: 804 - H: 1"];
"0x7fff280012e0" -> "0x7fff800022a0"[color=grey];
"0x7fff00001c20"[label="K: 808 - H: 1"];
"0x7fff00001c20" -> "0x7fff800022a0"[color=grey];
"0x7fff40000c20"[label="K: 812 - H: 3"];
"0x7fff40000c20" -> "0x7fffb0001120"[color=blue];
"0x7fff40000c20" -> "0x7fff18000b60"[color=green];
"0x7fff40000c20" -> "0x7fffb00018a0"[color=grey];
"0x7fffb0001120"[label="K: 811 - H: 2"];
"0x7fffb0001120" -> "0x7fff80000fe0"[color=blue];
"0x7fffb0001120" -> "0x7fff40000c20"[color=grey];
"0x7fff80000fe0"[label="K: 810 - H: 1"];
"0x7fff80000fe0" -> "0x7fffb0001120"[color=grey];
"0x7fff18000b60"[label="K: 815 - H: 1"];
"0x7fff18000b60" -> "0x7fff40000c20"[color=grey];
"0x7fff40001320"[label="K: 827 - H: 4"];
"0x7fff40001320" -> "0x7fff38000b20"[color=blue];
"0x7fff40001320" -> "0x7fff14000ba0"[color=green];
"0x7fff40001320" -> "0x7fff84000d60"[color=grey];
"0x7fff38000b20"[label="K: 824 - H: 2"];
"0x7fff38000b20" -> "0x7fff34000ba0"[color=blue];
"0x7fff38000b20" -> "0x7fff800023a0"[color=green];
"0x7fff38000b20" -> "0x7fff40001320"[color=grey];
"0x7fff34000ba0"[label="K: 821 - H: 1"];
"0x7fff34000ba0" -> "0x7fff38000b20"[color=grey];
"0x7fff800023a0"[label="K: 825 - H: 1"];
"0x7fff800023a0" -> "0x7fff38000b20"[color=grey];
"0x7fff14000ba0"[label="K: 833 - H: 3"];
"0x7fff14000ba0" -> "0x7fff280019a0"[color=blue];
"0x7fff14000ba0" -> "0x7fff80000d60"[color=green];
"0x7fff14000ba0" -> "0x7fff40001320"[color=grey];
"0x7fff280019a0"[label="K: 831 - H: 1"];
"0x7fff280019a0" -> "0x7fff14000ba0"[color=grey];
"0x7fff80000d60"[label="K: 837 - H: 2"];
"0x7fff80000d60" -> "0x7fff7c001c20"[color=blue];
"0x7fff80000d60" -> "0x7fff14000ba0"[color=grey];
"0x7fff7c001c20"[label="K: 834 - H: 1"];
"0x7fff7c001c20" -> "0x7fff80000d60"[color=grey];
"0x7fff40001ca0"[label="K: 915 - H: 8"];
"0x7fff40001ca0" -> "0x7fff70001e20"[color=blue];
"0x7fff40001ca0" -> "0x7fff40001460"[color=green];
"0x7fff40001ca0" -> "0x7fff58000fa0"[color=grey];
"0x7fff70001e20"[label="K: 868 - H: 6"];
"0x7fff70001e20" -> "0x7fff840012a0"[color=blue];
"0x7fff70001e20" -> "0x7fff18000c60"[color=green];
"0x7fff70001e20" -> "0x7fff40001ca0"[color=grey];
"0x7fff840012a0"[label="K: 851 - H: 5"];
"0x7fff840012a0" -> "0x7fff50000fa0"[color=blue];
"0x7fff840012a0" -> "0x7ffeec000e20"[color=green];
"0x7fff840012a0" -> "0x7fff70001e20"[color=grey];
"0x7fff50000fa0"[label="K: 845 - H: 3"];
"0x7fff50000fa0" -> "0x7fffa8001c20"[color=blue];
"0x7fff50000fa0" -> "0x7ffeec001ae0"[color=green];
"0x7fff50000fa0" -> "0x7fff840012a0"[color=grey];
"0x7fffa8001c20"[label="K: 844 - H: 2"];
"0x7fffa8001c20" -> "0x7fff6c0015e0"[color=blue];
"0x7fffa8001c20" -> "0x7fff50000fa0"[color=grey];
"0x7fff6c0015e0"[label="K: 841 - H: 1"];
"0x7fff6c0015e0" -> "0x7fffa8001c20"[color=grey];
"0x7ffeec001ae0"[label="K: 847 - H: 2"];
"0x7ffeec001ae0" -> "0x7fff64000ca0"[color=blue];
"0x7ffeec001ae0" -> "0x7fff7c0011a0"[color=green];
"0x7ffeec001ae0" -> "0x7fff50000fa0"[color=grey];
"0x7fff64000ca0"[label="K: 846 - H: 1"];
"0x7fff64000ca0" -> "0x7ffeec001ae0"[color=grey];
"0x7fff7c0011a0"[label="K: 849 - H: 1"];
"0x7fff7c0011a0" -> "0x7ffeec001ae0"[color=grey];
"0x7ffeec000e20"[label="K: 858 - H: 4"];
"0x7ffeec000e20" -> "0x7ffeec0012a0"[color=blue];
"0x7ffeec000e20" -> "0x7fff6c000ca0"[color=green];
"0x7ffeec000e20" -> "0x7fff840012a0"[color=grey];
"0x7ffeec0012a0"[label="K: 854 - H: 2"];
"0x7ffeec0012a0" -> "0x7fff64000fe0"[color=blue];
"0x7ffeec0012a0" -> "0x7fff50001b20"[color=green];
"0x7ffeec0012a0" -> "0x7ffeec000e20"[color=grey];
"0x7fff64000fe0"[label="K: 853 - H: 1"];
"0x7fff64000fe0" -> "0x7ffeec0012a0"[color=grey];
"0x7fff50001b20"[label="K: 857 - H: 1"];
"0x7fff50001b20" -> "0x7ffeec0012a0"[color=grey];
"0x7fff6c000ca0"[label="K: 861 - H: 3"];
"0x7fff6c000ca0" -> "0x7fffc0001420"[color=blue];
"0x7fff6c000ca0" -> "0x7fff340013a0"[color=green];
"0x7fff6c000ca0" -> "0x7ffeec000e20"[color=grey];
"0x7fffc0001420"[label="K: 859 - H: 2"];
"0x7fffc0001420" -> "0x7fff180010e0"[color=green];
"0x7fffc0001420" -> "0x7fff6c000ca0"[color=grey];
"0x7fff180010e0"[label="K: 860 - H: 1"];
"0x7fff180010e0" -> "0x7fffc0001420"[color=grey];
"0x7fff340013a0"[label="K: 863 - H: 2"];
"0x7fff340013a0" -> "0x7fff50001720"[color=blue];
"0x7fff340013a0" -> "0x7fff28001e20"[color=green];
"0x7fff340013a0" -> "0x7fff6c000ca0"[color=grey];
"0x7fff50001720"[label="K: 862 - H: 1"];
"0x7fff50001720" -> "0x7fff340013a0"[color=grey];
"0x7fff28001e20"[label="K: 864 - H: 1"];
"0x7fff28001e20" -> "0x7fff340013a0"[color=grey];
"0x7fff18000c60"[label="K: 889 - H: 5"];
"0x7fff18000c60" -> "0x7fff50001560"[color=blue];
"0x7fff18000c60" -> "0x7fff18000d60"[color=green];
"0x7fff18000c60" -> "0x7fff70001e20"[color=grey];
"0x7fff50001560"[label="K: 881 - H: 4"];
"0x7fff50001560" -> "0x7fffa8000f20"[color=blue];
"0x7fff50001560" -> "0x7fff6c000fa0"[color=green];
"0x7fff50001560" -> "0x7fff18000c60"[color=grey];
"0x7fffa8000f20"[label="K: 875 - H: 3"];
"0x7fffa8000f20" -> "0x7ffeec0015a0"[color=blue];
"0x7fffa8000f20" -> "0x7fffb4001ce0"[color=green];
"0x7fffa8000f20" -> "0x7fff50001560"[color=grey];
"0x7ffeec0015a0"[label="K: 873 - H: 2"];
"0x7ffeec0015a0" -> "0x7fff50001420"[color=green];
"0x7ffeec0015a0" -> "0x7fffa8000f20"[color=grey];
"0x7fff50001420"[label="K: 874 - H: 1"];
"0x7fff50001420" -> "0x7ffeec0015a0"[color=grey];
"0x7fffb4001ce0"[label="K: 880 - H: 2"];
"0x7fffb4001ce0" -> "0x7fffb0000f20"[color=blue];
"0x7fffb4001ce0" -> "0x7fffa8000f20"[color=grey];
"0x7fffb0000f20"[label="K: 877 - H: 1"];
"0x7fffb0000f20" -> "0x7fffb4001ce0"[color=grey];
"0x7fff6c000fa0"[label="K: 885 - H: 3"];
"0x7fff6c000fa0" -> "0x7fff40000ba0"[color=blue];
"0x7fff6c000fa0" -> "0x7fff50001260"[color=green];
"0x7fff6c000fa0" -> "0x7fff50001560"[color=grey];
"0x7fff40000ba0"[label="K: 883 - H: 2"];
"0x7fff40000ba0" -> "0x7fff58000d60"[color=green];
"0x7fff40000ba0" -> "0x7fff6c000fa0"[color=grey];
"0x7fff58000d60"[label="K: 884 - H: 1"];
"0x7fff58000d60" -> "0x7fff40000ba0"[color=grey];
"0x7fff50001260"[label="K: 886 - H: 1"];
"0x7fff50001260" -> "0x7fff6c000fa0"[color=grey];
"0x7fff18000d60"[label="K: 910 - H: 3"];
"0x7fff18000d60" -> "0x7fff80001220"[color=blue];
"0x7fff18000d60" -> "0x7fffb0001520"[color=green];
"0x7fff18000d60" -> "0x7fff18000c60"[color=grey];
"0x7fff80001220"[label="K: 894 - H: 2"];
"0x7fff80001220" -> "0x7ffeec001520"[color=blue];
"0x7fff80001220" -> "0x7ffeec000ba0"[color=green];
"0x7fff80001220" -> "0x7fff18000d60"[color=grey];
"0x7ffeec001520"[label="K: 890 - H: 1"];
"0x7ffeec001520" -> "0x7fff80001220"[color=grey];
"0x7ffeec000ba0"[label="K: 896 - H: 1"];
"0x7ffeec000ba0" -> "0x7fff80001220"[color=grey];
"0x7fffb0001520"[label="K: 914 - H: 2"];
"0x7fffb0001520" -> "0x7fffb0001460"[color=blue];
"0x7fffb0001520" -> "0x7fff18000d60"[color=grey];
"0x7fffb0001460"[label="K: 911 - H: 1"];
"0x7fffb0001460" -> "0x7fffb0001520"[color=grey];
"0x7fff40001460"[label="K: 965 - H: 7"];
"0x7fff40001460" -> "0x7fff8c0017a0"[color=blue];
"0x7fff40001460" -> "0x7fff100010a0"[color=green];
"0x7fff40001460" -> "0x7fff40001ca0"[color=grey];
"0x7fff8c0017a0"[label="K: 950 - H: 6"];
"0x7fff8c0017a0" -> "0x7fffb0000ba0"[color=blue];
"0x7fff8c0017a0" -> "0x7fffb4002260"[color=green];
"0x7fff8c0017a0" -> "0x7fff40001460"[color=grey];
"0x7fffb0000ba0"[label="K: 932 - H: 5"];
"0x7fffb0000ba0" -> "0x7fff500012a0"[color=blue];
"0x7fffb0000ba0" -> "0x7fff580010e0"[color=green];
"0x7fffb0000ba0" -> "0x7fff8c0017a0"[color=grey];
"0x7fff500012a0"[label="K: 923 - H: 4"];
"0x7fff500012a0" -> "0x7fff280010a0"[color=blue];
"0x7fff500012a0" -> "0x7fff940014e0"[color=green];
"0x7fff500012a0" -> "0x7fffb0000ba0"[color=grey];
"0x7fff280010a0"[label="K: 919 - H: 2"];
"0x7fff280010a0" -> "0x7fff50001b60"[color=blue];
"0x7fff280010a0" -> "0x7fff38000ee0"[color=green];
"0x7fff280010a0" -> "0x7fff500012a0"[color=grey];
"0x7fff50001b60"[label="K: 916 - H: 1"];
"0x7fff50001b60" -> "0x7fff280010a0"[color=grey];
"0x7fff38000ee0"[label="K: 920 - H: 1"];
"0x7fff38000ee0" -> "0x7fff280010a0"[color=grey];
"0x7fff940014e0"[label="K: 925 - H: 3"];
"0x7fff940014e0" -> "0x7fffb00010e0"[color=blue];
"0x7fff940014e0" -> "0x7fffa8000de0"[color=green];
"0x7fff940014e0" -> "0x7fff500012a0"[color=grey];
"0x7fffb00010e0"[label="K: 924 - H: 1"];
"0x7fffb00010e0" -> "0x7fff940014e0"[color=grey];
"0x7fffa8000de0"[label="K: 929 - H: 2"];
"0x7fffa8000de0" -> "0x7fff7c001320"[color=blue];
"0x7fffa8000de0" -> "0x7fff940014e0"[color=grey];
"0x7fff7c001320"[label="K: 926 - H: 1"];
"0x7fff7c001320" -> "0x7fffa8000de0"[color=grey];
"0x7fff580010e0"[label="K: 945 - H: 3"];
"0x7fff580010e0" -> "0x7fff70001320"[color=blue];
"0x7fff580010e0" -> "0x7fff14001b20"[color=green];
"0x7fff580010e0" -> "0x7fffb0000ba0"[color=grey];
"0x7fff70001320"[label="K: 934 - H: 2"];
"0x7fff70001320" -> "0x7fff7c000c20"[color=blue];
"0x7fff70001320" -> "0x7fff000021a0"[color=green];
"0x7fff70001320" -> "0x7fff580010e0"[color=grey];
"0x7fff7c000c20"[label="K: 933 - H: 1"];
"0x7fff7c000c20" -> "0x7fff70001320"[color=grey];
"0x7fff000021a0"[label="K: 937 - H: 1"];
"0x7fff000021a0" -> "0x7fff70001320"[color=grey];
"0x7fff14001b20"[label="K: 946 - H: 1"];
"0x7fff14001b20" -> "0x7fff580010e0"[color=grey];
"0x7fffb4002260"[label="K: 954 - H: 4"];
"0x7fffb4002260" -> "0x7fff64001620"[color=blue];
"0x7fffb4002260" -> "0x7fffb4000d20"[color=green];
"0x7fffb4002260" -> "0x7fff8c0017a0"[color=grey];
"0x7fff64001620"[label="K: 951 - H: 2"];
"0x7fff64001620" -> "0x7fff10001520"[color=green];
"0x7fff64001620" -> "0x7fffb4002260"[color=grey];
"0x7fff10001520"[label="K: 952 - H: 1"];
"0x7fff10001520" -> "0x7fff64001620"[color=grey];
"0x7fffb4000d20"[label="K: 958 - H: 3"];
"0x7fffb4000d20" -> "0x7fff340021a0"[color=blue];
"0x7fffb4000d20" -> "0x7fff10001e60"[color=green];
"0x7fffb4000d20" -> "0x7fffb4002260"[color=grey];
"0x7fff340021a0"[label="K: 955 - H: 1"];
"0x7fff340021a0" -> "0x7fffb4000d20"[color=grey];
"0x7fff10001e60"[label="K: 960 - H: 2"];
"0x7fff10001e60" -> "0x7fffa80013a0"[color=blue];
"0x7fff10001e60" -> "0x7fffb00012a0"[color=green];
"0x7fff10001e60" -> "0x7fffb4000d20"[color=grey];
"0x7fffa80013a0"[label="K: 959 - H: 1"];
"0x7fffa80013a0" -> "0x7fff10001e60"[color=grey];
"0x7fffb00012a0"[label="K: 963 - H: 1"];
"0x7fffb00012a0" -> "0x7fff10001e60"[color=grey];
"0x7fff100010a0"[label="K: 986 - H: 5"];
"0x7fff100010a0" -> "0x7fffb0000ee0"[color=blue];
"0x7fff100010a0" -> "0x7fff60002de0"[color=green];
"0x7fff100010a0" -> "0x7fff40001460"[color=grey];
"0x7fffb0000ee0"[label="K: 977 - H: 4"];
"0x7fffb0000ee0" -> "0x7fff00002160"[color=blue];
"0x7fffb0000ee0" -> "0x7fff000012e0"[color=green];
"0x7fffb0000ee0" -> "0x7fff100010a0"[color=grey];
"0x7fff00002160"[label="K: 968 - H: 3"];
"0x7fff00002160" -> "0x7fff18000ba0"[color=blue];
"0x7fff00002160" -> "0x7fffb40018a0"[color=green];
"0x7fff00002160" -> "0x7fffb0000ee0"[color=grey];
"0x7fff18000ba0"[label="K: 967 - H: 2"];
"0x7fff18000ba0" -> "0x7fffc00012a0"[color=blue];
"0x7fff18000ba0" -> "0x7fff00002160"[color=grey];
"0x7fffc00012a0"[label="K: 966 - H: 1"];
"0x7fffc00012a0" -> "0x7fff18000ba0"[color=grey];
"0x7fffb40018a0"[label="K: 971 - H: 2"];
"0x7fffb40018a0" -> "0x7fff58001860"[color=blue];
"0x7fffb40018a0" -> "0x7fffc4000ce0"[color=green];
"0x7fffb40018a0" -> "0x7fff00002160"[color=grey];
"0x7fff58001860"[label="K: 970 - H: 1"];
"0x7fff58001860" -> "0x7fffb40018a0"[color=grey];
"0x7fffc4000ce0"[label="K: 975 - H: 1"];
"0x7fffc4000ce0" -> "0x7fffb40018a0"[color=grey];
"0x7fff000012e0"[label="K: 979 - H: 3"];
"0x7fff000012e0" -> "0x7fffd40011a0"[color=blue];
"0x7fff000012e0" -> "0x7fff34001220"[color=green];
"0x7fff000012e0" -> "0x7fffb0000ee0"[color=grey];
"0x7fffd40011a0"[label="K: 978 - H: 1"];
"0x7fffd40011a0" -> "0x7fff000012e0"[color=grey];
"0x7fff34001220"[label="K: 982 - H: 2"];
"0x7fff34001220" -> "0x7fff7c001160"[color=blue];
"0x7fff34001220" -> "0x7fffa0001a60"[color=green];
"0x7fff34001220" -> "0x7fff000012e0"[color=grey];
"0x7fff7c001160"[label="K: 980 - H: 1"];
"0x7fff7c001160" -> "0x7fff34001220"[color=grey];
"0x7fffa0001a60"[label="K: 983 - H: 1"];
"0x7fffa0001a60" -> "0x7fff34001220"[color=grey];
"0x7fff60002de0"[label="K: 990 - H: 4"];
"0x7fff60002de0" -> "0x7fff40001560"[color=blue];
"0x7fff60002de0" -> "0x7fff7c001220"[color=green];
"0x7fff60002de0" -> "0x7fff100010a0"[color=grey];
"0x7fff40001560"[label="K: 988 - H: 2"];
"0x7fff40001560" -> "0x7fff28001760"[color=blue];
"0x7fff40001560" -> "0x7fff8c001ea0"[color=green];
"0x7fff40001560" -> "0x7fff60002de0"[color=grey];
"0x7fff28001760"[label="K: 987 - H: 1"];
"0x7fff28001760" -> "0x7fff40001560"[color=grey];
"0x7fff8c001ea0"[label="K: 989 - H: 1"];
"0x7fff8c001ea0" -> "0x7fff40001560"[color=grey];
"0x7fff7c001220"[label="K: 994 - H: 3"];
"0x7fff7c001220" -> "0x7fffb00013a0"[color=blue];
"0x7fff7c001220" -> "0x7fffc4000ee0"[color=green];
"0x7fff7c001220" -> "0x7fff60002de0"[color=grey];
"0x7fffb00013a0"[label="K: 992 - H: 2"];
"0x7fffb00013a0" -> "0x7fff64001020"[color=blue];
"0x7fffb00013a0" -> "0x7fff80001f60"[color=green];
"0x7fffb00013a0" -> "0x7fff7c001220"[color=grey];
"0x7fff64001020"[label="K: 991 - H: 1"];
"0x7fff64001020" -> "0x7fffb00013a0"[color=grey];
"0x7fff80001f60"[label="K: 993 - H: 1"];
"0x7fff80001f60" -> "0x7fffb00013a0"[color=grey];
"0x7fffc4000ee0"[label="K: 998 - H: 1"];
"0x7fffc4000ee0" -> "0x7fff7c001220"[color=grey];
}